1	286.7 286.7
2	289.6 289.6
3	285.6 285.6
4	286.5 286.5
5	287.1 287.1
6	285.1 285.1
7	286.2 286.2
8	286.3 286.3
9	332.6 332.6
10	288.6 288.6
11	285.1 285.1
12	286.6 286.6
13	288.8 288.8
14	285.5 285.5
15	286.4 286.4
16	287.1 287.1
17	284.2 284.2
18	291.6 291.6
19	293.0 293.0
20	284.7 284.7
21	286.6 286.6
22	471.4 471.4
23	290.1 290.1
24	286.6 286.6
25	374.5 374.5
26	397.6 397.6
27	288.2 288.2
28	287.5 287.5
29	286.0 286.0
30	287.6 287.6
31	286.8 286.8
32	291.4 291.4
33	292.4 292.4
34	357.0 357.0
35	286.4 286.4
36	287.6 287.6
37	287.6 287.6
38	285.1 285.1
39	285.1 285.1
40	285.9 285.9
41	287.5 287.5
42	285.2 285.2
43	286.7 286.7
44	292.2 292.2
45	286.5 286.5
46	286.6 286.6
47	285.9 285.9
48	284.6 284.6
49	733.9 733.9
50	644.2 644.2
51	816.2 816.2
52	286.4 286.4
53	339.5 339.5
54	289.2 289.2
55	287.3 287.3
56	286.8 286.8
57	286.3 286.3
58	285.6 285.6
59	286.5 286.5
60	295.9 295.9
61	292.3 292.3
62	286.7 286.7
63	286.4 286.4
64	301.5 301.5
65	357.4 357.4
66	286.3 286.3
67	519.5 519.5
68	292.7 292.7
69	284.6 284.6
70	284.5 284.5
71	285.8 285.8
72	283.9 283.9
73	292.2 292.2
74	285.5 285.5
75	285.7 285.7
76	288.5 288.5
77	286.5 286.5
78	286.3 286.3
79	283.7 283.7
80	301.4 301.4
81	286.8 286.8
82	286.5 286.5
83	287.1 287.1
84	290.6 290.6
85	291.5 291.5
86	286.5 286.5
87	979.1 979.1
88	286.8 286.8
89	288.1 288.1
90	286.6 286.6
91	287.5 287.5
92	306.8 306.8
93	286.6 286.6
94	287.3 287.3
95	292.3 292.3
96	324.2 324.2
97	286.2 286.2
98	288.7 288.7
99	283.1 283.1
100	285.8 285.8
101	285.7 285.7
102	340.6 340.6
103	287.9 287.9
104	284.6 284.6
105	285.2 285.2
106	396.8 396.8
107	285.3 285.3
108	283.8 283.8
109	284.8 284.8
110	287.1 287.1
111	284.7 284.7
112	287.5 287.5
113	286.5 286.5
114	285.6 285.6
115	285.3 285.3
116	284.9 284.9
117	285.3 285.3
118	287.5 287.5
119	284.5 284.5
120	284.3 284.3
121	285.5 285.5
122	284.6 284.6
123	287.3 287.3
124	291.2 291.2
125	287.7 287.7
126	286.5 286.5
127	299.7 299.7
128	286.0 286.0
129	312.8 312.8
130	286.2 286.2
131	284.8 284.8
132	286.0 286.0
133	286.0 286.0
134	285.7 285.7
135	291.0 291.0
136	286.1 286.1
137	286.4 286.4
138	285.6 285.6
139	285.2 285.2
140	286.3 286.3
141	298.8 298.8
142	286.3 286.3
143	286.4 286.4
144	288.7 288.7
145	292.5 292.5
146	285.1 285.1
147	294.9 294.9
148	284.0 284.0
149	284.7 284.7
150	284.8 284.8
151	291.3 291.3
152	286.9 286.9
153	291.2 291.2
154	289.9 289.9
155	287.8 287.8
156	284.1 284.1
157	778.6 778.6
158	286.2 286.2
159	284.0 284.0
160	287.4 287.4
161	291.3 291.3
162	284.4 284.4
163	286.9 286.9
164	284.6 284.6
165	292.3 292.3
166	285.4 285.4
167	286.0 286.0
168	289.3 289.3
169	284.2 284.2
170	287.1 287.1
171	286.0 286.0
172	373.9 373.9
173	286.6 286.6
174	292.0 292.0
175	292.2 292.2
176	291.8 291.8
177	284.9 284.9
178	285.8 285.8
179	287.7 287.7
180	286.3 286.3
181	285.1 285.1
182	286.3 286.3
183	351.3 351.3
184	285.2 285.2
185	287.0 287.0
186	388.5 388.5
187	486.3 486.3
188	289.4 289.4
189	286.4 286.4
190	443.4 443.4
191	359.0 359.0
192	336.3 336.3
193	291.6 291.6
194	370.9 370.9
195	286.7 286.7
196	291.9 291.9
197	286.0 286.0
198	286.2 286.2
199	288.2 288.2
200	284.6 284.6
201	286.8 286.8
202	427.3 427.3
203	286.7 286.7
204	285.8 285.8
205	291.9 291.9
206	286.6 286.6
207	286.5 286.5
208	453.2 453.2
209	286.8 286.8
210	286.7 286.7
211	286.2 286.2
212	283.8 283.8
213	286.2 286.2
214	285.1 285.1
215	287.0 287.0
216	287.6 287.6
217	285.2 285.2
218	285.9 285.9
219	286.2 286.2
220	292.9 292.9
221	291.6 291.6
222	286.0 286.0
223	285.9 285.9
224	284.8 284.8
225	286.6 286.6
226	286.4 286.4
227	363.1 363.1
228	286.4 286.4
229	288.0 288.0
230	284.8 284.8
231	286.8 286.8
232	287.2 287.2
233	290.9 290.9
234	324.3 324.3
235	285.1 285.1
236	286.7 286.7
237	286.9 286.9
238	286.7 286.7
239	285.8 285.8
240	286.4 286.4
241	971.5 971.5
242	286.6 286.6
243	287.5 287.5
244	286.0 286.0
245	285.8 285.8
246	286.3 286.3
247	286.6 286.6
248	293.5 293.5
249	286.9 286.9
250	287.4 287.4
251	285.5 285.5
252	789.1 789.1
253	332.3 332.3
254	287.1 287.1
255	290.6 290.6
256	286.3 286.3
257	286.4 286.4
258	286.4 286.4
259	292.3 292.3
260	287.9 287.9
261	285.7 285.7
262	283.5 283.5
263	285.5 285.5
264	292.9 292.9
265	551.6 551.6
266	285.8 285.8
267	286.3 286.3
268	286.6 286.6
269	287.0 287.0
270	285.1 285.1
271	285.5 285.5
272	285.7 285.7
273	291.9 291.9
274	340.9 340.9
275	293.1 293.1
276	285.9 285.9
277	286.4 286.4
278	343.5 343.5
279	286.2 286.2
280	291.9 291.9
281	291.8 291.8
282	287.9 287.9
283	288.1 288.1
284	286.1 286.1
285	287.8 287.8
286	363.8 363.8
287	286.3 286.3
288	286.9 286.9
289	285.4 285.4
290	287.4 287.4
291	286.8 286.8
292	286.3 286.3
293	284.7 284.7
294	286.1 286.1
295	294.6 294.6
296	687.3 687.3
297	1184.2 1184.2
298	285.9 285.9
299	284.7 284.7
300	468.8 468.8
301	891.6 891.6
302	284.1 284.1
303	284.6 284.6
304	287.1 287.1
305	290.7 290.7
306	287.0 287.0
307	285.9 285.9
308	291.8 291.8
309	286.1 286.1
310	285.4 285.4
311	285.7 285.7
312	287.0 287.0
313	285.5 285.5
314	292.2 292.2
315	286.5 286.5
316	285.7 285.7
317	286.2 286.2
318	285.7 285.7
319	287.4 287.4
320	287.5 287.5
321	384.5 384.5
322	285.6 285.6
323	354.1 354.1
324	285.7 285.7
325	285.0 285.0
326	284.7 284.7
327	286.0 286.0
328	286.2 286.2
329	286.7 286.7
330	287.9 287.9
331	285.8 285.8
332	287.4 287.4
333	291.6 291.6
334	292.5 292.5
335	287.2 287.2
336	287.4 287.4
337	286.0 286.0
338	284.9 284.9
339	286.4 286.4
340	320.7 320.7
341	294.8 294.8
342	285.4 285.4
343	287.4 287.4
344	286.8 286.8
345	286.2 286.2
346	287.2 287.2
347	287.9 287.9
348	285.9 285.9
349	283.9 283.9
350	286.3 286.3
351	285.4 285.4
352	285.5 285.5
353	1112.4 1112.4
354	286.6 286.6
355	286.8 286.8
356	343.7 343.7
357	291.1 291.1
358	284.3 284.3
359	285.5 285.5
360	628.6 628.6
361	285.5 285.5
362	286.4 286.4
363	287.3 287.3
364	286.8 286.8
365	284.8 284.8
366	288.8 288.8
367	286.5 286.5
368	285.8 285.8
369	286.8 286.8
370	293.0 293.0
371	284.8 284.8
372	284.4 284.4
373	284.7 284.7
374	285.0 285.0
375	286.1 286.1
376	284.6 284.6
377	287.6 287.6
378	285.8 285.8
379	285.0 285.0
380	297.9 297.9
381	350.3 350.3
382	286.9 286.9
383	288.1 288.1
384	287.5 287.5
385	286.9 286.9
386	286.3 286.3
387	285.4 285.4
388	291.5 291.5
389	284.9 284.9
390	285.6 285.6
391	335.2 335.2
392	285.2 285.2
393	291.8 291.8
394	286.1 286.1
395	286.7 286.7
396	286.6 286.6
397	288.4 288.4
398	286.3 286.3
399	292.6 292.6
400	291.7 291.7
401	287.5 287.5
402	287.4 287.4
403	287.5 287.5
404	287.5 287.5
405	287.8 287.8
406	291.5 291.5
407	284.9 284.9
408	286.7 286.7
409	293.6 293.6
410	284.9 284.9
411	285.9 285.9
412	286.3 286.3
413	285.6 285.6
414	286.7 286.7
415	296.6 296.6
416	287.1 287.1
417	433.8 433.8
418	284.0 284.0
419	286.2 286.2
420	287.3 287.3
421	286.2 286.2
422	286.0 286.0
423	286.5 286.5
424	287.0 287.0
425	292.7 292.7
426	285.5 285.5
427	285.3 285.3
428	291.8 291.8
429	287.2 287.2
430	286.3 286.3
431	381.9 381.9
432	336.8 336.8
433	286.2 286.2
434	284.9 284.9
435	296.1 296.1
436	286.9 286.9
437	287.1 287.1
438	287.6 287.6
439	285.1 285.1
440	287.8 287.8
441	286.9 286.9
442	286.7 286.7
443	292.2 292.2
444	740.2 740.2
445	1943.3 1943.3
446	299.0 299.0
447	293.1 293.1
448	289.7 289.7
449	292.1 292.1
450	287.2 287.2
451	283.7 283.7
452	286.4 286.4
453	287.7 287.7
454	293.8 293.8
455	285.9 285.9
456	285.1 285.1
457	284.4 284.4
458	286.5 286.5
459	285.0 285.0
460	286.7 286.7
461	287.0 287.0
462	286.6 286.6
463	286.6 286.6
464	292.3 292.3
465	287.2 287.2
466	286.7 286.7
467	288.5 288.5
468	284.7 284.7
469	286.6 286.6
470	293.5 293.5
471	287.9 287.9
472	287.9 287.9
473	698.4 698.4
474	287.8 287.8
475	285.5 285.5
476	293.4 293.4
477	293.3 293.3
478	286.7 286.7
479	293.3 293.3
480	288.4 288.4
481	285.2 285.2
482	300.4 300.4
483	289.1 289.1
484	286.0 286.0
485	285.9 285.9
486	287.4 287.4
487	292.1 292.1
488	286.9 286.9
489	285.9 285.9
490	284.7 284.7
491	286.6 286.6
492	579.0 579.0
493	287.0 287.0
494	284.8 284.8
495	283.6 283.6
496	480.3 480.3
497	285.4 285.4
498	337.0 337.0
499	285.3 285.3
500	900.1 900.1
501	286.3 286.3
502	286.1 286.1
503	286.3 286.3
504	286.8 286.8
505	286.0 286.0
506	287.2 287.2
507	286.0 286.0
508	384.6 384.6
509	285.8 285.8
510	287.5 287.5
511	285.2 285.2
512	284.1 284.1
513	286.9 286.9
514	286.3 286.3
515	284.3 284.3
516	285.6 285.6
517	285.7 285.7
518	292.6 292.6
519	286.4 286.4
520	302.0 302.0
521	286.5 286.5
522	285.1 285.1
523	442.7 442.7
524	287.5 287.5
525	286.3 286.3
526	287.1 287.1
527	761.0 761.0
528	286.3 286.3
529	286.9 286.9
530	287.9 287.9
531	286.7 286.7
532	293.1 293.1
533	291.2 291.2
534	285.6 285.6
535	790.6 790.6
536	287.3 287.3
537	285.2 285.2
538	286.4 286.4
539	288.2 288.2
540	288.3 288.3
541	288.4 288.4
542	295.0 295.0
543	352.4 352.4
544	287.0 287.0
545	287.7 287.7
546	286.1 286.1
547	282.8 282.8
548	286.3 286.3
549	285.9 285.9
550	292.1 292.1
551	340.6 340.6
552	285.9 285.9
553	293.6 293.6
554	285.0 285.0
555	292.4 292.4
556	288.9 288.9
557	287.2 287.2
558	285.1 285.1
559	286.3 286.3
560	284.0 284.0
561	343.8 343.8
562	287.1 287.1
563	286.9 286.9
564	286.7 286.7
565	285.5 285.5
566	287.0 287.0
567	286.3 286.3
568	287.7 287.7
569	285.8 285.8
570	292.3 292.3
571	286.1 286.1
572	285.1 285.1
573	285.4 285.4
574	286.5 286.5
575	292.0 292.0
576	287.1 287.1
577	285.6 285.6
578	285.1 285.1
579	286.0 286.0
580	287.9 287.9
581	287.4 287.4
582	293.7 293.7
583	286.9 286.9
584	292.8 292.8
585	297.2 297.2
586	285.5 285.5
587	286.3 286.3
588	285.0 285.0
589	285.2 285.2
590	286.7 286.7
591	286.7 286.7
592	285.2 285.2
593	311.8 311.8
594	284.9 284.9
595	291.6 291.6
596	292.7 292.7
597	291.2 291.2
598	285.3 285.3
599	286.8 286.8
600	286.8 286.8
601	285.0 285.0
602	286.6 286.6
603	287.8 287.8
604	303.3 303.3
605	730.8 730.8
606	287.5 287.5
607	291.5 291.5
608	288.0 288.0
609	284.5 284.5
610	287.0 287.0
611	285.0 285.0
612	524.4 524.4
613	286.9 286.9
614	292.3 292.3
615	291.6 291.6
616	285.3 285.3
617	286.2 286.2
618	288.0 288.0
619	293.7 293.7
620	337.0 337.0
621	304.6 304.6
622	293.5 293.5
623	284.9 284.9
624	286.9 286.9
625	285.5 285.5
626	285.4 285.4
627	287.2 287.2
628	285.2 285.2
629	286.3 286.3
630	284.1 284.1
631	381.7 381.7
632	284.4 284.4
633	292.4 292.4
634	1024.4 1024.4
635	287.3 287.3
636	351.0 351.0
637	285.2 285.2
638	286.3 286.3
639	567.4 567.4
640	287.5 287.5
641	285.1 285.1
642	284.7 284.7
643	285.2 285.2
644	292.0 292.0
645	285.6 285.6
646	285.8 285.8
647	287.2 287.2
648	285.1 285.1
649	285.8 285.8
650	951.0 951.0
651	330.3 330.3
652	482.5 482.5
653	284.8 284.8
654	288.3 288.3
655	287.6 287.6
656	293.0 293.0
657	292.8 292.8
658	285.4 285.4
659	285.6 285.6
660	340.4 340.4
661	286.0 286.0
662	286.7 286.7
663	286.0 286.0
664	285.4 285.4
665	290.0 290.0
666	284.7 284.7
667	289.8 289.8
668	284.3 284.3
669	286.5 286.5
670	286.8 286.8
671	357.0 357.0
672	284.3 284.3
673	287.3 287.3
674	291.8 291.8
675	285.9 285.9
676	286.1 286.1
677	290.2 290.2
678	291.6 291.6
679	284.2 284.2
680	286.9 286.9
681	286.4 286.4
682	317.3 317.3
683	285.7 285.7
684	287.6 287.6
685	292.8 292.8
686	286.3 286.3
687	286.2 286.2
688	289.0 289.0
689	286.1 286.1
690	287.0 287.0
691	284.1 284.1
692	287.3 287.3
693	285.4 285.4
694	289.7 289.7
695	286.4 286.4
696	284.5 284.5
697	297.8 297.8
698	569.3 569.3
699	475.2 475.2
700	286.3 286.3
701	285.3 285.3
702	285.6 285.6
703	287.1 287.1
704	743.1 743.1
705	286.2 286.2
706	315.5 315.5
707	286.5 286.5
708	286.3 286.3
709	287.3 287.3
710	285.4 285.4
711	286.6 286.6
712	286.0 286.0
713	292.8 292.8
714	292.1 292.1
715	287.0 287.0
716	286.5 286.5
717	286.6 286.6
718	286.4 286.4
719	286.1 286.1
720	286.5 286.5
721	365.8 365.8
722	286.0 286.0
723	285.4 285.4
724	738.4 738.4
725	292.1 292.1
726	292.4 292.4
727	287.1 287.1
728	286.4 286.4
729	286.7 286.7
730	288.0 288.0
731	284.5 284.5
732	286.7 286.7
733	286.2 286.2
734	286.8 286.8
735	284.5 284.5
736	286.7 286.7
737	293.0 293.0
738	287.0 287.0
739	294.0 294.0
740	294.3 294.3
741	287.0 287.0
742	287.9 287.9
743	285.3 285.3
744	284.4 284.4
745	286.9 286.9
746	286.7 286.7
747	285.0 285.0
748	287.4 287.4
749	286.8 286.8
750	286.2 286.2
751	286.7 286.7
752	292.2 292.2
753	286.4 286.4
754	287.7 287.7
755	285.3 285.3
756	286.6 286.6
757	286.6 286.6
758	286.8 286.8
759	330.1 330.1
760	285.3 285.3
761	287.7 287.7
762	439.6 439.6
763	287.2 287.2
764	287.1 287.1
765	286.5 286.5
766	286.8 286.8
767	286.0 286.0
768	286.4 286.4
769	286.9 286.9
770	287.2 287.2
771	288.6 288.6
772	286.0 286.0
773	292.3 292.3
774	285.0 285.0
775	285.7 285.7
776	285.3 285.3
777	286.2 286.2
778	284.9 284.9
779	285.9 285.9
780	287.7 287.7
781	713.5 713.5
782	286.9 286.9
783	286.9 286.9
784	286.1 286.1
785	287.3 287.3
786	286.7 286.7
787	287.0 287.0
788	286.3 286.3
789	285.4 285.4
790	291.1 291.1
791	283.3 283.3
792	286.5 286.5
793	286.2 286.2
794	285.5 285.5
795	284.7 284.7
796	287.2 287.2
797	287.6 287.6
798	291.2 291.2
799	286.8 286.8
800	286.1 286.1
801	290.7 290.7
802	932.2 932.2
803	286.2 286.2
804	284.4 284.4
805	285.8 285.8
806	285.0 285.0
807	284.1 284.1
808	322.3 322.3
809	286.7 286.7
810	287.5 287.5
811	286.6 286.6
812	287.1 287.1
813	289.0 289.0
814	289.7 289.7
815	295.9 295.9
816	284.6 284.6
817	286.6 286.6
818	286.6 286.6
819	284.8 284.8
820	284.0 284.0
821	287.8 287.8
822	1057.5 1057.5
823	286.2 286.2
824	286.3 286.3
825	285.6 285.6
826	286.3 286.3
827	286.5 286.5
828	287.1 287.1
829	287.3 287.3
830	291.4 291.4
831	285.2 285.2
832	291.9 291.9
833	290.5 290.5
834	290.5 290.5
835	291.8 291.8
836	287.2 287.2
837	285.6 285.6
838	286.7 286.7
839	287.6 287.6
840	284.5 284.5
841	287.8 287.8
842	286.9 286.9
843	284.5 284.5
844	287.2 287.2
845	284.7 284.7
846	284.7 284.7
847	546.1 546.1
848	2206.7 2206.7
849	286.6 286.6
850	284.3 284.3
851	286.5 286.5
852	288.5 288.5
853	286.4 286.4
854	286.9 286.9
855	286.4 286.4
856	291.5 291.5
857	287.4 287.4
858	291.5 291.5
859	287.3 287.3
860	284.9 284.9
861	289.7 289.7
862	285.1 285.1
863	288.0 288.0
864	285.3 285.3
865	285.9 285.9
866	286.0 286.0
867	376.0 376.0
868	286.3 286.3
869	287.2 287.2
870	294.2 294.2
871	286.7 286.7
872	284.6 284.6
873	289.1 289.1
874	286.7 286.7
875	285.0 285.0
876	284.3 284.3
877	287.4 287.4
878	286.7 286.7
879	285.4 285.4
880	294.1 294.1
881	284.7 284.7
882	285.4 285.4
883	286.8 286.8
884	285.1 285.1
885	285.4 285.4
886	286.5 286.5
887	286.1 286.1
888	291.4 291.4
889	287.8 287.8
890	292.1 292.1
891	285.6 285.6
892	285.2 285.2
893	286.7 286.7
894	286.9 286.9
895	284.8 284.8
896	285.7 285.7
897	288.1 288.1
898	286.3 286.3
899	286.1 286.1
900	285.1 285.1
901	285.9 285.9
902	286.8 286.8
903	286.2 286.2
904	284.4 284.4
905	510.8 510.8
906	685.2 685.2
907	286.8 286.8
908	286.1 286.1
909	322.0 322.0
910	396.4 396.4
911	287.0 287.0
912	285.8 285.8
913	284.9 284.9
914	286.6 286.6
915	291.6 291.6
916	468.2 468.2
917	285.4 285.4
918	320.0 320.0
919	286.0 286.0
920	286.8 286.8
921	286.4 286.4
922	293.6 293.6
923	294.7 294.7
924	286.2 286.2
925	285.7 285.7
926	285.3 285.3
927	286.3 286.3
928	286.2 286.2
929	285.1 285.1
930	293.1 293.1
931	285.2 285.2
932	286.5 286.5
933	284.6 284.6
934	286.6 286.6
935	291.3 291.3
936	287.3 287.3
937	352.0 352.0
938	288.4 288.4
939	286.5 286.5
940	284.7 284.7
941	290.9 290.9
942	285.0 285.0
943	447.8 447.8
944	291.8 291.8
945	284.8 284.8
946	287.4 287.4
947	286.2 286.2
948	286.5 286.5
949	288.1 288.1
950	286.0 286.0
951	293.3 293.3
952	286.9 286.9
953	285.0 285.0
954	292.1 292.1
955	2404.5 2404.5
956	292.5 292.5
957	293.3 293.3
958	286.3 286.3
959	291.8 291.8
960	286.8 286.8
961	285.9 285.9
962	286.6 286.6
963	287.0 287.0
964	286.4 286.4
965	292.6 292.6
966	285.0 285.0
967	286.4 286.4
968	370.2 370.2
969	3138.0 3138.0
970	286.6 286.6
971	284.9 284.9
972	286.5 286.5
973	286.9 286.9
974	286.9 286.9
975	287.6 287.6
976	287.7 287.7
977	289.5 289.5
978	293.6 293.6
979	286.9 286.9
980	376.3 376.3
981	287.0 287.0
982	287.2 287.2
983	288.8 288.8
984	371.3 371.3
985	292.4 292.4
986	284.5 284.5
987	287.1 287.1
988	286.9 286.9
989	292.1 292.1
990	294.7 294.7
991	286.9 286.9
992	286.1 286.1
993	334.9 334.9
994	286.6 286.6
995	286.3 286.3
996	289.1 289.1
997	294.3 294.3
998	334.7 334.7
999	292.3 292.3
1000	286.8 286.8
1001	284.9 284.9
1002	286.6 286.6
1003	291.5 291.5
1004	287.8 287.8
1005	287.1 287.1
1006	305.7 305.7
1007	287.6 287.6
1008	284.8 284.8
1009	286.9 286.9
1010	285.5 285.5
1011	287.2 287.2
1012	324.9 324.9
1013	287.3 287.3
1014	325.0 325.0
1015	285.0 285.0
1016	286.5 286.5
1017	287.3 287.3
1018	294.6 294.6
1019	293.7 293.7
1020	290.2 290.2
1021	285.8 285.8
1022	286.2 286.2
1023	286.1 286.1
1024	286.1 286.1
1025	286.1 286.1
1026	286.2 286.2
1027	289.5 289.5
1028	287.4 287.4
1029	286.7 286.7
1030	284.6 284.6
1031	285.9 285.9
1032	292.9 292.9
1033	286.6 286.6
1034	291.0 291.0
1035	304.8 304.8
1036	285.1 285.1
1037	286.1 286.1
1038	292.1 292.1
1039	285.2 285.2
1040	286.2 286.2
1041	286.4 286.4
1042	285.9 285.9
1043	302.4 302.4
1044	284.0 284.0
1045	284.3 284.3
1046	289.2 289.2
1047	315.4 315.4
1048	285.0 285.0
1049	285.0 285.0
1050	292.5 292.5
1051	285.0 285.0
1052	285.3 285.3
1053	285.6 285.6
1054	345.0 345.0
1055	292.9 292.9
1056	286.4 286.4
1057	285.9 285.9
1058	287.9 287.9
1059	290.4 290.4
1060	284.9 284.9
1061	379.8 379.8
1062	286.4 286.4
1063	285.7 285.7
1064	288.3 288.3
1065	285.3 285.3
1066	285.2 285.2
1067	284.8 284.8
1068	285.9 285.9
1069	287.6 287.6
1070	285.2 285.2
1071	290.2 290.2
1072	284.2 284.2
1073	287.2 287.2
1074	302.9 302.9
1075	286.8 286.8
1076	292.5 292.5
1077	286.9 286.9
1078	293.5 293.5
1079	286.3 286.3
1080	285.9 285.9
1081	787.5 787.5
1082	284.5 284.5
1083	285.6 285.6
1084	287.5 287.5
1085	285.0 285.0
1086	286.0 286.0
1087	285.8 285.8
1088	290.1 290.1
1089	287.0 287.0
1090	286.5 286.5
1091	287.0 287.0
1092	286.2 286.2
1093	286.8 286.8
1094	285.7 285.7
1095	284.9 284.9
1096	291.1 291.1
1097	287.1 287.1
1098	291.7 291.7
1099	285.9 285.9
1100	379.0 379.0
1101	285.5 285.5
1102	285.0 285.0
1103	323.7 323.7
1104	286.4 286.4
1105	287.0 287.0
1106	285.2 285.2
1107	292.4 292.4
1108	286.7 286.7
1109	287.0 287.0
1110	287.0 287.0
1111	286.8 286.8
1112	287.2 287.2
1113	284.8 284.8
1114	285.2 285.2
1115	418.4 418.4
1116	284.1 284.1
1117	284.8 284.8
1118	287.4 287.4
1119	286.1 286.1
1120	286.5 286.5
1121	286.9 286.9
1122	284.6 284.6
1123	681.7 681.7
1124	291.7 291.7
1125	292.4 292.4
1126	285.4 285.4
1127	287.6 287.6
1128	286.0 286.0
1129	371.5 371.5
1130	367.0 367.0
1131	420.4 420.4
1132	373.0 373.0
1133	285.8 285.8
1134	287.1 287.1
1135	292.9 292.9
1136	286.6 286.6
1137	285.8 285.8
1138	293.2 293.2
1139	284.8 284.8
1140	390.7 390.7
1141	284.8 284.8
1142	286.1 286.1
1143	285.1 285.1
1144	287.2 287.2
1145	325.8 325.8
1146	293.1 293.1
1147	286.6 286.6
1148	286.3 286.3
1149	286.0 286.0
1150	293.2 293.2
1151	287.4 287.4
1152	919.2 919.2
1153	286.4 286.4
1154	286.9 286.9
1155	285.2 285.2
1156	1329.0 1329.0
1157	291.1 291.1
1158	287.7 287.7
1159	1113.6 1113.6
1160	290.7 290.7
1161	287.5 287.5
1162	286.3 286.3
1163	287.0 287.0
1164	291.8 291.8
1165	287.9 287.9
1166	286.7 286.7
1167	289.4 289.4
1168	284.1 284.1
1169	287.0 287.0
1170	284.9 284.9
1171	285.7 285.7
1172	379.9 379.9
1173	290.8 290.8
1174	287.8 287.8
1175	286.7 286.7
1176	287.2 287.2
1177	286.8 286.8
1178	284.2 284.2
1179	284.9 284.9
1180	292.0 292.0
1181	292.1 292.1
1182	373.6 373.6
1183	286.3 286.3
1184	286.3 286.3
1185	286.0 286.0
1186	286.6 286.6
1187	301.4 301.4
1188	286.9 286.9
1189	325.1 325.1
1190	287.1 287.1
1191	289.6 289.6
1192	286.9 286.9
1193	902.7 902.7
1194	292.4 292.4
1195	652.4 652.4
1196	283.2 283.2
1197	287.2 287.2
1198	284.8 284.8
1199	285.1 285.1
1200	286.4 286.4
1201	288.0 288.0
1202	286.3 286.3
1203	284.3 284.3
1204	287.0 287.0
1205	286.8 286.8
1206	285.2 285.2
1207	287.8 287.8
1208	285.9 285.9
1209	286.8 286.8
1210	327.7 327.7
1211	285.5 285.5
1212	287.0 287.0
1213	286.7 286.7
1214	286.7 286.7
1215	284.1 284.1
1216	396.7 396.7
1217	288.0 288.0
1218	287.2 287.2
1219	288.4 288.4
1220	455.9 455.9
1221	291.3 291.3
1222	286.6 286.6
1223	285.9 285.9
1224	291.0 291.0
1225	286.3 286.3
1226	385.3 385.3
1227	286.0 286.0
1228	290.9 290.9
1229	473.6 473.6
1230	285.4 285.4
1231	286.5 286.5
1232	285.3 285.3
1233	286.6 286.6
1234	309.6 309.6
1235	285.2 285.2
1236	284.1 284.1
1237	914.9 914.9
1238	287.2 287.2
1239	371.9 371.9
1240	289.6 289.6
1241	351.4 351.4
1242	291.1 291.1
1243	285.9 285.9
1244	375.8 375.8
1245	330.1 330.1
1246	284.4 284.4
1247	292.8 292.8
1248	285.3 285.3
1249	286.7 286.7
1250	286.7 286.7
1251	285.1 285.1
1252	292.3 292.3
1253	286.4 286.4
1254	286.7 286.7
1255	286.1 286.1
1256	287.3 287.3
1257	287.1 287.1
1258	288.9 288.9
1259	285.6 285.6
1260	286.5 286.5
1261	288.6 288.6
1262	286.9 286.9
1263	287.0 287.0
1264	286.6 286.6
1265	287.3 287.3
1266	285.4 285.4
1267	286.5 286.5
1268	287.1 287.1
1269	286.6 286.6
1270	286.0 286.0
1271	283.7 283.7
1272	288.2 288.2
1273	299.4 299.4
1274	285.2 285.2
1275	285.9 285.9
1276	292.2 292.2
1277	289.7 289.7
1278	286.2 286.2
1279	290.4 290.4
1280	295.4 295.4
1281	292.2 292.2
1282	917.5 917.5
1283	286.9 286.9
1284	285.7 285.7
1285	288.5 288.5
1286	283.0 283.0
1287	287.7 287.7
1288	286.1 286.1
1289	287.0 287.0
1290	287.0 287.0
1291	286.5 286.5
1292	293.7 293.7
1293	286.5 286.5
1294	286.1 286.1
1295	292.4 292.4
1296	284.9 284.9
1297	285.8 285.8
1298	288.5 288.5
1299	286.2 286.2
1300	294.4 294.4
1301	286.0 286.0
1302	284.3 284.3
1303	286.4 286.4
1304	286.4 286.4
1305	286.6 286.6
1306	286.4 286.4
1307	286.8 286.8
1308	292.6 292.6
1309	286.6 286.6
1310	287.7 287.7
1311	284.8 284.8
1312	892.0 892.0
1313	287.1 287.1
1314	292.2 292.2
1315	292.5 292.5
1316	285.0 285.0
1317	283.8 283.8
1318	286.6 286.6
1319	287.2 287.2
1320	286.5 286.5
1321	533.7 533.7
1322	285.1 285.1
1323	287.2 287.2
1324	286.7 286.7
1325	287.3 287.3
1326	286.6 286.6
1327	286.8 286.8
1328	1785.3 1785.3
1329	292.8 292.8
1330	286.7 286.7
1331	286.9 286.9
1332	291.2 291.2
1333	429.3 429.3
1334	291.8 291.8
1335	285.3 285.3
1336	287.4 287.4
1337	380.8 380.8
1338	290.7 290.7
1339	395.7 395.7
1340	288.5 288.5
1341	293.2 293.2
1342	286.3 286.3
1343	285.9 285.9
1344	287.4 287.4
1345	290.8 290.8
1346	292.7 292.7
1347	292.9 292.9
1348	286.9 286.9
1349	286.2 286.2
1350	330.1 330.1
1351	287.0 287.0
1352	286.8 286.8
1353	286.8 286.8
1354	420.2 420.2
1355	284.8 284.8
1356	286.7 286.7
1357	285.7 285.7
1358	292.2 292.2
1359	286.6 286.6
1360	285.1 285.1
1361	287.3 287.3
1362	359.5 359.5
1363	286.8 286.8
1364	285.3 285.3
1365	291.8 291.8
1366	286.8 286.8
1367	284.5 284.5
1368	284.7 284.7
1369	286.5 286.5
1370	286.8 286.8
1371	813.6 813.6
1372	287.0 287.0
1373	286.1 286.1
1374	286.8 286.8
1375	286.5 286.5
1376	286.3 286.3
1377	296.6 296.6
1378	283.7 283.7
1379	287.2 287.2
1380	286.3 286.3
1381	292.3 292.3
1382	287.3 287.3
1383	285.0 285.0
1384	286.5 286.5
1385	284.4 284.4
1386	1031.4 1031.4
1387	1411.2 1411.2
1388	285.5 285.5
1389	287.1 287.1
1390	520.7 520.7
1391	285.9 285.9
1392	285.5 285.5
1393	285.0 285.0
1394	526.7 526.7
1395	285.0 285.0
1396	345.3 345.3
1397	284.7 284.7
1398	285.1 285.1
1399	287.9 287.9
1400	286.7 286.7
1401	398.9 398.9
1402	286.4 286.4
1403	293.0 293.0
1404	286.2 286.2
1405	287.1 287.1
1406	286.1 286.1
1407	286.4 286.4
1408	292.7 292.7
1409	580.7 580.7
1410	667.7 667.7
1411	291.0 291.0
1412	286.2 286.2
1413	286.6 286.6
1414	286.6 286.6
1415	286.2 286.2
1416	286.7 286.7
1417	285.4 285.4
1418	289.5 289.5
1419	285.8 285.8
1420	285.7 285.7
1421	285.2 285.2
1422	287.7 287.7
1423	286.0 286.0
1424	307.5 307.5
1425	287.5 287.5
1426	293.4 293.4
1427	293.3 293.3
1428	286.6 286.6
1429	286.2 286.2
1430	287.6 287.6
1431	286.6 286.6
1432	292.8 292.8
1433	294.7 294.7
1434	284.4 284.4
1435	285.5 285.5
1436	290.8 290.8
1437	286.9 286.9
1438	287.3 287.3
1439	287.0 287.0
1440	286.7 286.7
1441	287.0 287.0
1442	286.1 286.1
1443	287.7 287.7
1444	286.7 286.7
1445	418.2 418.2
1446	286.3 286.3
1447	369.3 369.3
1448	284.6 284.6
1449	285.9 285.9
1450	285.3 285.3
1451	287.4 287.4
1452	284.0 284.0
1453	284.8 284.8
1454	286.9 286.9
1455	455.7 455.7
1456	289.3 289.3
1457	3353.6 3353.6
1458	290.8 290.8
1459	286.3 286.3
1460	287.9 287.9
1461	286.6 286.6
1462	286.3 286.3
1463	286.2 286.2
1464	352.5 352.5
1465	292.1 292.1
1466	286.4 286.4
1467	291.4 291.4
1468	284.9 284.9
1469	292.2 292.2
1470	287.3 287.3
1471	286.0 286.0
1472	285.7 285.7
1473	287.7 287.7
1474	284.0 284.0
1475	285.9 285.9
1476	286.3 286.3
1477	286.0 286.0
1478	620.2 620.2
1479	293.4 293.4
1480	284.9 284.9
1481	287.0 287.0
1482	285.2 285.2
1483	286.2 286.2
1484	295.3 295.3
1485	287.0 287.0
1486	287.4 287.4
1487	285.8 285.8
1488	286.3 286.3
1489	1210.2 1210.2
1490	287.1 287.1
1491	286.3 286.3
1492	378.8 378.8
1493	287.3 287.3
1494	286.3 286.3
1495	285.3 285.3
1496	284.2 284.2
1497	288.0 288.0
1498	286.0 286.0
1499	292.9 292.9
1500	292.2 292.2
1501	286.8 286.8
1502	287.1 287.1
1503	293.5 293.5
1504	286.6 286.6
1505	291.8 291.8
1506	287.1 287.1
1507	286.8 286.8
1508	287.7 287.7
1509	370.1 370.1
1510	285.5 285.5
1511	287.4 287.4
1512	286.5 286.5
1513	286.9 286.9
1514	287.0 287.0
1515	286.2 286.2
1516	287.2 287.2
1517	286.2 286.2
1518	291.8 291.8
