1	335 335
2	343 343
3	337 337
4	353 353
5	351 351
6	356 356
7	350 350
8	358 358
9	345 345
10	342 342
11	347 347
12	374 374
13	362 362
14	344 344
15	671 671
16	352 352
17	341 341
18	344 344
19	437 437
20	343 343
21	336 336
22	613 613
23	336 336
24	335 335
25	352 352
26	360 360
27	345 345
28	341 341
29	354 354
30	359 359
31	351 351
32	564 564
33	343 343
34	346 346
35	344 344
36	341 341
37	353 353
38	336 336
39	352 352
40	443 443
41	344 344
42	548 548
43	335 335
44	355 355
45	342 342
46	392 392
47	395 395
48	343 343
49	342 342
50	374 374
51	346 346
52	348 348
53	345 345
54	351 351
55	360 360
56	410 410
57	338 338
58	458 458
59	351 351
60	352 352
61	636 636
62	406 406
63	338 338
64	360 360
65	342 342
66	334 334
67	352 352
68	375 375
69	359 359
70	351 351
71	452 452
72	348 348
73	357 357
74	536 536
75	345 345
76	355 355
77	354 354
78	339 339
79	350 350
80	350 350
81	360 360
82	342 342
83	352 352
84	342 342
85	357 357
86	341 341
87	338 338
88	353 353
89	335 335
90	350 350
91	349 349
92	351 351
93	354 354
94	356 356
95	437 437
96	354 354
97	457 457
98	352 352
99	344 344
100	367 367
101	344 344
102	347 347
103	366 366
104	353 353
105	342 342
106	352 352
107	362 362
108	530 530
109	342 342
110	336 336
111	344 344
112	361 361
113	349 349
114	344 344
115	354 354
116	342 342
117	350 350
118	609 609
119	346 346
120	353 353
121	421 421
122	354 354
123	356 356
124	348 348
125	355 355
126	355 355
127	342 342
128	351 351
129	346 346
130	358 358
131	330 330
132	359 359
133	347 347
134	350 350
135	342 342
136	352 352
137	353 353
138	346 346
139	336 336
140	397 397
141	352 352
142	342 342
143	348 348
144	346 346
145	344 344
146	472 472
147	340 340
148	353 353
149	355 355
150	342 342
151	354 354
152	342 342
153	406 406
154	384 384
155	347 347
156	362 362
157	345 345
158	353 353
159	359 359
160	336 336
161	352 352
162	352 352
163	343 343
164	354 354
165	357 357
166	335 335
167	350 350
168	445 445
169	409 409
170	343 343
171	343 343
172	356 356
173	342 342
174	457 457
175	346 346
176	345 345
177	342 342
178	938 938
179	349 349
180	439 439
181	342 342
182	353 353
183	354 354
184	359 359
185	357 357
186	347 347
187	336 336
188	353 353
189	346 346
190	356 356
191	337 337
192	352 352
193	344 344
194	358 358
195	352 352
196	414 414
197	350 350
198	354 354
199	356 356
200	341 341
201	772 772
202	355 355
203	361 361
204	449 449
205	363 363
206	495 495
207	351 351
208	355 355
209	355 355
210	358 358
211	405 405
212	372 372
213	362 362
214	343 343
215	351 351
216	331 331
217	347 347
218	341 341
219	343 343
220	340 340
221	331 331
222	417 417
223	360 360
224	336 336
225	348 348
226	353 353
227	369 369
228	346 346
229	339 339
230	352 352
231	351 351
232	355 355
233	340 340
234	342 342
235	376 376
236	348 348
237	369 369
238	434 434
239	355 355
240	357 357
241	356 356
242	364 364
243	348 348
244	363 363
245	347 347
246	342 342
247	342 342
248	345 345
249	348 348
250	355 355
251	427 427
252	353 353
253	345 345
254	353 353
255	404 404
256	362 362
257	336 336
258	343 343
259	346 346
260	441 441
261	358 358
262	341 341
263	346 346
264	341 341
265	338 338
266	338 338
267	341 341
268	467 467
269	351 351
270	345 345
271	336 336
272	343 343
273	363 363
274	357 357
275	357 357
276	348 348
277	338 338
278	337 337
279	408 408
280	425 425
281	354 354
282	343 343
283	352 352
284	433 433
285	392 392
286	538 538
287	348 348
288	517 517
289	346 346
290	345 345
291	353 353
292	459 459
293	402 402
294	353 353
295	437 437
296	346 346
297	337 337
298	429 429
299	354 354
300	576 576
301	347 347
302	363 363
303	355 355
304	372 372
305	350 350
306	344 344
307	360 360
308	481 481
309	479 479
310	361 361
311	345 345
312	341 341
313	352 352
314	351 351
315	338 338
316	350 350
317	336 336
318	351 351
319	645 645
320	352 352
321	343 343
322	347 347
323	359 359
324	356 356
325	331 331
326	358 358
327	346 346
328	352 352
329	328 328
330	343 343
331	337 337
332	344 344
333	348 348
334	417 417
335	350 350
336	362 362
337	356 356
338	379 379
339	416 416
340	342 342
341	344 344
342	339 339
343	339 339
344	345 345
345	342 342
346	353 353
347	354 354
348	433 433
349	352 352
350	337 337
351	337 337
352	352 352
353	346 346
354	338 338
355	342 342
356	347 347
357	355 355
358	389 389
359	1119 1119
360	334 334
361	363 363
362	355 355
363	351 351
364	500 500
365	335 335
366	346 346
367	349 349
368	385 385
369	349 349
370	346 346
371	350 350
372	344 344
373	346 346
374	343 343
375	347 347
376	454 454
377	352 352
378	351 351
379	336 336
380	348 348
381	347 347
382	340 340
383	355 355
384	336 336
385	354 354
386	336 336
387	346 346
388	352 352
389	343 343
390	334 334
391	343 343
392	351 351
393	338 338
394	520 520
395	345 345
396	337 337
397	353 353
398	336 336
399	354 354
400	353 353
401	441 441
402	350 350
403	338 338
404	349 349
405	344 344
406	359 359
407	454 454
408	353 353
409	359 359
410	344 344
411	348 348
412	361 361
413	436 436
414	714 714
415	426 426
416	353 353
417	343 343
418	542 542
419	355 355
420	343 343
421	346 346
422	355 355
423	345 345
424	351 351
425	353 353
426	350 350
427	350 350
428	338 338
429	391 391
430	353 353
431	336 336
432	342 342
433	342 342
434	356 356
435	353 353
436	429 429
437	353 353
438	342 342
439	344 344
440	351 351
441	344 344
442	349 349
443	335 335
444	350 350
445	346 346
446	419 419
447	333 333
448	327 327
449	352 352
450	345 345
451	430 430
452	332 332
453	354 354
454	342 342
455	351 351
456	352 352
457	362 362
458	413 413
459	346 346
460	352 352
461	346 346
462	350 350
463	351 351
464	352 352
465	548 548
466	337 337
467	347 347
468	354 354
469	345 345
470	361 361
471	360 360
472	348 348
473	341 341
474	361 361
475	372 372
476	362 362
477	362 362
478	350 350
479	338 338
480	355 355
481	502 502
482	336 336
483	350 350
484	352 352
485	349 349
486	411 411
487	351 351
488	341 341
489	344 344
490	349 349
491	362 362
492	366 366
493	345 345
494	355 355
495	349 349
496	352 352
497	355 355
498	614 614
499	346 346
500	359 359
501	352 352
502	365 365
503	353 353
504	353 353
505	338 338
506	353 353
507	354 354
508	349 349
509	353 353
510	331 331
511	351 351
512	511 511
513	347 347
514	355 355
515	355 355
516	350 350
517	360 360
518	343 343
519	348 348
520	347 347
521	337 337
522	335 335
523	346 346
524	350 350
525	428 428
526	343 343
527	364 364
528	356 356
529	343 343
530	355 355
531	346 346
532	337 337
533	349 349
534	339 339
535	386 386
536	407 407
537	352 352
538	342 342
539	344 344
540	355 355
541	356 356
542	339 339
543	356 356
544	452 452
545	419 419
546	337 337
547	615 615
548	350 350
549	347 347
550	339 339
551	352 352
552	375 375
553	343 343
554	866 866
555	351 351
556	339 339
557	340 340
558	345 345
559	341 341
560	344 344
561	396 396
562	352 352
563	536 536
564	361 361
565	493 493
566	353 353
567	378 378
568	346 346
569	423 423
570	351 351
571	362 362
572	383 383
573	345 345
574	1552 1552
575	353 353
576	377 377
577	441 441
578	336 336
579	352 352
580	347 347
581	354 354
582	334 334
583	440 440
584	344 344
585	917 917
586	353 353
587	337 337
588	361 361
589	410 410
590	355 355
591	348 348
592	472 472
593	351 351
594	351 351
595	345 345
596	360 360
597	496 496
598	360 360
599	339 339
600	763 763
601	346 346
602	339 339
603	360 360
604	356 356
605	360 360
606	346 346
607	349 349
608	348 348
609	363 363
610	430 430
611	432 432
612	336 336
613	359 359
614	352 352
615	359 359
616	347 347
617	347 347
618	379 379
619	425 425
620	361 361
621	338 338
622	344 344
623	347 347
624	352 352
625	333 333
626	346 346
627	351 351
628	343 343
629	353 353
630	344 344
631	331 331
632	344 344
633	332 332
634	362 362
635	333 333
636	362 362
637	345 345
638	344 344
639	380 380
640	361 361
641	333 333
642	337 337
643	350 350
644	349 349
645	345 345
646	357 357
647	345 345
648	335 335
649	347 347
650	336 336
651	345 345
652	346 346
653	351 351
654	357 357
655	447 447
656	362 362
657	354 354
658	347 347
659	345 345
660	363 363
661	353 353
662	353 353
663	338 338
664	352 352
665	335 335
666	347 347
667	340 340
668	342 342
669	334 334
670	337 337
671	339 339
672	357 357
673	483 483
674	352 352
675	351 351
676	353 353
677	472 472
678	438 438
679	336 336
680	460 460
681	344 344
682	343 343
683	338 338
684	360 360
685	331 331
686	345 345
687	360 360
688	354 354
689	343 343
690	426 426
691	357 357
692	434 434
693	396 396
694	336 336
695	348 348
696	342 342
697	329 329
698	575 575
699	352 352
700	340 340
701	337 337
702	345 345
703	342 342
704	354 354
705	350 350
706	371 371
707	349 349
708	350 350
709	351 351
710	347 347
711	353 353
712	395 395
713	350 350
714	350 350
715	349 349
716	355 355
717	346 346
718	357 357
719	355 355
720	419 419
721	349 349
722	344 344
723	351 351
724	353 353
725	384 384
726	357 357
727	616 616
728	346 346
729	345 345
730	353 353
731	352 352
732	347 347
733	352 352
734	363 363
735	359 359
736	347 347
737	334 334
738	351 351
739	344 344
740	341 341
741	463 463
742	360 360
743	341 341
744	346 346
745	337 337
746	354 354
747	335 335
748	359 359
749	355 355
750	351 351
751	346 346
752	359 359
753	362 362
754	330 330
755	344 344
756	386 386
757	351 351
758	346 346
759	355 355
760	351 351
761	374 374
762	352 352
763	351 351
764	362 362
765	359 359
766	350 350
767	352 352
768	353 353
769	371 371
770	347 347
771	353 353
772	344 344
773	347 347
774	348 348
775	347 347
776	330 330
777	340 340
778	355 355
779	435 435
780	343 343
781	346 346
782	379 379
783	344 344
784	373 373
785	341 341
786	351 351
787	362 362
788	333 333
789	349 349
790	343 343
791	336 336
792	543 543
793	361 361
794	353 353
795	361 361
796	351 351
797	351 351
798	346 346
799	357 357
800	349 349
801	461 461
802	657 657
803	351 351
804	360 360
805	346 346
806	342 342
807	352 352
808	353 353
809	357 357
810	350 350
811	341 341
812	361 361
813	350 350
814	349 349
815	344 344
816	340 340
817	346 346
818	371 371
819	354 354
820	348 348
821	343 343
822	359 359
823	344 344
824	402 402
825	351 351
826	351 351
827	344 344
828	350 350
829	356 356
830	360 360
831	353 353
832	1076 1076
833	354 354
834	362 362
835	347 347
836	390 390
837	346 346
838	526 526
839	349 349
840	344 344
841	838 838
842	343 343
843	828 828
844	345 345
845	346 346
846	345 345
847	485 485
848	547 547
849	344 344
850	361 361
851	361 361
852	339 339
853	354 354
854	342 342
855	353 353
856	485 485
857	360 360
858	350 350
859	351 351
860	345 345
861	379 379
862	339 339
863	352 352
864	349 349
865	336 336
866	359 359
867	354 354
868	347 347
869	337 337
870	356 356
871	354 354
872	358 358
873	337 337
874	359 359
875	375 375
876	360 360
877	329 329
878	338 338
879	350 350
880	344 344
881	337 337
882	347 347
883	348 348
884	345 345
885	352 352
886	352 352
887	356 356
888	393 393
889	425 425
890	349 349
891	332 332
892	354 354
893	337 337
894	663 663
895	337 337
896	339 339
897	421 421
898	352 352
899	351 351
900	364 364
901	346 346
902	354 354
903	347 347
904	336 336
905	354 354
906	336 336
907	347 347
908	343 343
909	345 345
910	356 356
911	352 352
912	346 346
913	351 351
914	339 339
915	345 345
916	344 344
917	351 351
918	352 352
919	342 342
920	345 345
921	361 361
922	354 354
923	487 487
924	390 390
925	344 344
926	344 344
927	345 345
928	352 352
929	357 357
930	527 527
931	349 349
932	393 393
933	349 349
934	353 353
935	355 355
936	355 355
937	354 354
938	345 345
939	354 354
940	342 342
941	528 528
942	346 346
943	344 344
944	356 356
945	360 360
946	362 362
947	355 355
948	338 338
949	345 345
950	341 341
951	352 352
952	349 349
953	355 355
954	344 344
955	404 404
956	362 362
957	347 347
958	347 347
959	344 344
960	352 352
961	346 346
962	523 523
963	347 347
964	337 337
965	354 354
966	343 343
967	347 347
968	346 346
969	341 341
970	340 340
971	354 354
972	379 379
973	340 340
974	360 360
975	342 342
976	351 351
977	345 345
978	348 348
979	355 355
980	351 351
981	364 364
982	365 365
983	351 351
984	355 355
985	351 351
986	698 698
987	344 344
988	362 362
989	402 402
990	392 392
991	343 343
992	352 352
993	343 343
994	345 345
995	352 352
996	346 346
997	349 349
998	356 356
999	344 344
1000	339 339
1001	362 362
1002	353 353
1003	338 338
1004	343 343
1005	347 347
1006	343 343
1007	615 615
1008	439 439
1009	352 352
1010	345 345
1011	457 457
1012	350 350
1013	339 339
1014	351 351
1015	353 353
1016	336 336
1017	425 425
1018	353 353
1019	354 354
1020	355 355
1021	343 343
1022	345 345
1023	349 349
1024	355 355
1025	350 350
1026	353 353
1027	397 397
1028	353 353
1029	336 336
1030	346 346
1031	343 343
1032	358 358
1033	350 350
1034	347 347
1035	356 356
1036	348 348
1037	343 343
1038	353 353
1039	343 343
1040	353 353
1041	363 363
1042	360 360
1043	453 453
1044	335 335
1045	338 338
1046	357 357
1047	335 335
1048	441 441
1049	352 352
1050	360 360
1051	336 336
1052	344 344
1053	346 346
1054	353 353
1055	346 346
1056	347 347
1057	352 352
1058	333 333
1059	347 347
1060	365 365
1061	352 352
1062	392 392
1063	346 346
1064	352 352
1065	346 346
1066	338 338
1067	361 361
1068	346 346
1069	352 352
1070	351 351
1071	355 355
1072	350 350
1073	356 356
1074	344 344
1075	558 558
1076	340 340
1077	354 354
1078	345 345
1079	355 355
1080	443 443
1081	352 352
1082	400 400
1083	431 431
1084	351 351
1085	583 583
1086	474 474
1087	335 335
1088	343 343
1089	480 480
1090	355 355
1091	350 350
1092	349 349
1093	348 348
1094	345 345
1095	930 930
1096	334 334
1097	361 361
1098	355 355
1099	403 403
1100	347 347
1101	348 348
1102	419 419
1103	377 377
1104	334 334
1105	343 343
1106	337 337
1107	356 356
1108	346 346
1109	329 329
1110	352 352
1111	354 354
1112	336 336
1113	339 339
1114	409 409
1115	344 344
1116	384 384
1117	530 530
1118	356 356
1119	377 377
1120	413 413
1121	345 345
1122	351 351
1123	343 343
1124	345 345
1125	380 380
1126	354 354
1127	354 354
1128	615 615
1129	353 353
1130	354 354
1131	461 461
1132	354 354
1133	357 357
1134	433 433
1135	357 357
1136	347 347
1137	346 346
1138	553 553
1139	347 347
1140	354 354
1141	353 353
1142	524 524
1143	342 342
1144	345 345
1145	434 434
1146	387 387
1147	351 351
1148	451 451
1149	355 355
1150	334 334
1151	344 344
1152	353 353
1153	346 346
1154	384 384
1155	339 339
1156	350 350
1157	378 378
1158	345 345
1159	616 616
1160	362 362
1161	344 344
1162	337 337
1163	351 351
1164	403 403
1165	354 354
1166	421 421
1167	360 360
1168	340 340
1169	336 336
1170	426 426
1171	352 352
1172	351 351
1173	349 349
1174	343 343
1175	351 351
1176	344 344
1177	344 344
1178	343 343
1179	353 353
1180	1132 1132
1181	340 340
1182	367 367
1183	333 333
1184	359 359
1185	349 349
1186	346 346
1187	416 416
1188	357 357
1189	347 347
1190	421 421
1191	340 340
1192	349 349
1193	353 353
1194	350 350
1195	348 348
1196	343 343
1197	337 337
1198	359 359
1199	335 335
1200	344 344
1201	336 336
1202	345 345
1203	345 345
1204	354 354
1205	337 337
1206	348 348
1207	351 351
1208	393 393
1209	355 355
1210	343 343
1211	335 335
1212	545 545
1213	337 337
1214	338 338
1215	344 344
1216	329 329
1217	350 350
1218	366 366
1219	348 348
1220	353 353
1221	351 351
1222	334 334
1223	339 339
1224	355 355
1225	348 348
1226	350 350
1227	338 338
1228	347 347
1229	359 359
1230	349 349
1231	345 345
1232	358 358
1233	350 350
1234	350 350
1235	352 352
1236	360 360
1237	356 356
1238	354 354
1239	338 338
1240	344 344
1241	405 405
1242	342 342
1243	345 345
1244	352 352
1245	606 606
