1	999 999
2	442 442
3	609 609
4	315 315
5	1069 1069
6	848 848
7	532 532
8	672 672
9	993 993
10	480 480
11	1371 1371
12	709 709
13	618 618
14	1452 1452
15	3696 3696
16	332 332
17	884 884
18	1525 1525
19	1487 1487
20	1473 1473
21	699 699
22	3503 3503
23	1733 1733
24	352 352
25	972 972
26	1792 1792
27	4203 4203
28	946 946
29	503 503
30	2875 2875
31	620 620
32	1904 1904
33	1148 1148
34	1997 1997
35	308 308
36	725 725
37	899 899
38	1991 1991
39	858 858
40	7889 7889
41	1523 1523
42	1644 1644
43	894 894
44	348 348
45	849 849
46	867 867
47	708 708
48	365 365
49	1170 1170
50	1526 1526
51	799 799
52	498 498
53	806 806
54	1874 1874
55	358 358
56	1007 1007
57	730 730
58	1380 1380
59	655 655
60	725 725
61	1585 1585
62	523 523
63	587 587
64	451 451
65	3297 3297
66	2815 2815
67	2219 2219
68	2330 2330
69	708 708
70	1792 1792
71	895 895
72	1718 1718
73	588 588
74	302 302
75	499 499
76	1563 1563
77	611 611
78	764 764
79	827 827
80	391 391
81	1550 1550
82	653 653
83	347 347
84	2127 2127
85	340 340
86	479 479
87	495 495
88	1720 1720
89	468 468
90	1657 1657
91	1934 1934
92	309 309
93	516 516
94	531 531
95	1255 1255
96	8490 8490
97	402 402
98	1179 1179
99	3614 3614
100	6271 6271
101	557 557
102	323 323
103	3230 3230
104	418 418
105	329 329
106	9152 9152
107	519 519
108	10648 10648
109	2915 2915
110	1014 1014
111	356 356
112	1235 1235
113	814 814
114	1159 1159
115	592 592
116	428 428
117	542 542
118	318 318
119	905 905
120	760 760
121	3996 3996
122	2630 2630
123	1498 1498
124	321 321
125	1336 1336
126	536 536
127	311 311
128	815 815
129	858 858
130	913 913
131	353 353
132	2113 2113
133	895 895
134	460 460
135	796 796
136	383 383
137	4591 4591
138	649 649
139	1478 1478
140	4753 4753
141	833 833
142	1317 1317
143	2248 2248
144	1372 1372
145	902 902
146	436 436
147	465 465
148	1201 1201
149	5423 5423
150	752 752
151	499 499
152	894 894
153	2050 2050
154	607 607
155	309 309
156	1541 1541
157	3054 3054
158	2026 2026
159	532 532
160	3162 3162
161	899 899
162	1249 1249
163	1296 1296
164	459 459
165	2508 2508
166	593 593
167	760 760
168	808 808
169	377 377
170	634 634
171	1901 1901
172	1390 1390
173	427 427
174	1484 1484
175	684 684
176	685 685
177	342 342
178	523 523
179	2787 2787
180	7302 7302
181	9323 9323
182	7832 7832
183	918 918
184	3006 3006
185	2652 2652
186	738 738
187	1967 1967
188	644 644
189	2704 2704
190	502 502
191	763 763
192	661 661
193	1179 1179
194	4169 4169
195	461 461
196	415 415
197	1722 1722
198	1374 1374
199	1127 1127
200	898 898
201	3474 3474
202	1578 1578
203	2120 2120
204	1133 1133
205	1298 1298
206	906 906
207	824 824
208	2645 2645
209	1335 1335
210	7744 7744
211	753 753
212	1085 1085
213	2049 2049
214	623 623
215	323 323
216	869 869
217	1060 1060
218	981 981
219	1388 1388
220	370 370
221	670 670
222	949 949
223	757 757
224	7510 7510
225	912 912
226	1198 1198
227	844 844
228	2577 2577
229	463 463
230	1678 1678
231	1830 1830
232	2430 2430
233	1325 1325
234	607 607
235	670 670
236	555 555
237	1607 1607
238	685 685
239	314 314
240	1662 1662
241	396 396
242	1865 1865
243	3009 3009
244	754 754
245	326 326
246	1610 1610
247	1606 1606
248	1699 1699
249	536 536
250	909 909
251	1037 1037
252	1508 1508
253	604 604
254	729 729
255	412 412
256	1051 1051
257	344 344
258	440 440
259	777 777
260	275 275
261	761 761
262	843 843
263	481 481
264	305 305
265	1126 1126
266	851 851
267	887 887
268	712 712
269	1081 1081
270	317 317
271	322 322
272	848 848
273	578 578
274	585 585
275	718 718
276	3187 3187
277	1442 1442
278	3151 3151
279	1126 1126
280	1280 1280
281	453 453
282	462 462
283	2990 2990
284	580 580
285	291 291
286	289 289
287	475 475
288	986 986
289	380 380
290	4523 4523
291	5431 5431
292	1483 1483
293	1127 1127
294	1586 1586
295	3477 3477
296	433 433
297	910 910
298	887 887
299	1620 1620
300	420 420
301	336 336
302	1162 1162
303	3081 3081
304	743 743
305	1546 1546
306	2512 2512
307	394 394
308	1611 1611
309	1268 1268
310	3082 3082
311	283 283
312	1071 1071
313	298 298
314	819 819
315	1995 1995
316	1214 1214
317	911 911
318	720 720
319	2523 2523
320	1104 1104
321	289 289
322	2179 2179
323	1678 1678
324	1427 1427
325	1301 1301
326	1733 1733
327	1624 1624
328	497 497
329	819 819
330	346 346
331	667 667
332	1291 1291
333	1526 1526
334	7702 7702
335	1413 1413
336	751 751
337	612 612
338	3041 3041
339	398 398
340	894 894
341	1552 1552
342	3090 3090
343	667 667
344	1450 1450
345	6927 6927
346	278 278
347	360 360
348	1147 1147
349	542 542
350	1348 1348
351	1280 1280
352	2979 2979
353	588 588
354	675 675
355	978 978
356	6820 6820
357	6034 6034
358	1534 1534
359	677 677
360	734 734
361	1132 1132
362	1386 1386
363	593 593
364	835 835
365	442 442
366	677 677
367	1136 1136
368	4971 4971
369	9373 9373
370	4225 4225
371	782 782
372	2036 2036
373	771 771
374	644 644
375	1275 1275
376	940 940
377	575 575
378	386 386
379	4042 4042
380	3599 3599
381	1642 1642
382	445 445
383	490 490
384	1641 1641
385	287 287
386	388 388
387	880 880
388	7806 7806
389	1181 1181
390	865 865
391	335 335
392	993 993
393	2567 2567
394	1489 1489
395	5433 5433
396	491 491
397	1938 1938
398	484 484
399	1673 1673
400	2161 2161
401	665 665
402	372 372
403	1190 1190
404	815 815
405	499 499
406	1488 1488
407	330 330
408	1391 1391
409	2011 2011
410	9596 9596
411	804 804
412	1289 1289
413	1183 1183
414	1144 1144
415	1428 1428
416	898 898
417	548 548
418	613 613
419	6354 6354
420	323 323
421	9992 9992
422	808 808
423	1053 1053
424	1992 1992
425	276 276
426	370 370
427	1235 1235
428	1997 1997
429	923 923
430	2861 2861
431	554 554
432	1187 1187
433	1181 1181
434	327 327
435	335 335
436	855 855
437	850 850
438	1355 1355
439	1642 1642
440	680 680
441	763 763
442	464 464
443	8468 8468
444	869 869
445	305 305
446	717 717
447	301 301
448	2658 2658
449	709 709
450	6372 6372
451	274 274
452	934 934
453	597 597
454	631 631
455	628 628
456	293 293
457	1072 1072
458	2964 2964
459	287 287
460	930 930
461	322 322
462	1864 1864
463	4579 4579
464	733 733
465	957 957
466	10000 10000
467	883 883
468	2274 2274
469	711 711
470	339 339
471	3405 3405
472	1851 1851
473	2940 2940
474	634 634
475	594 594
476	1134 1134
477	2420 2420
478	2014 2014
479	1754 1754
480	292 292
481	1132 1132
482	584 584
483	1610 1610
484	5332 5332
485	615 615
486	1249 1249
487	565 565
488	2517 2517
489	644 644
490	642 642
491	10063 10063
492	654 654
493	457 457
494	492 492
495	4390 4390
496	443 443
497	1583 1583
498	630 630
499	4740 4740
500	1517 1517
501	3053 3053
502	321 321
503	889 889
504	1727 1727
505	661 661
506	1040 1040
507	281 281
508	540 540
509	570 570
510	1336 1336
511	1710 1710
512	367 367
513	332 332
514	680 680
515	438 438
516	521 521
517	544 544
518	999 999
519	959 959
520	7734 7734
521	1288 1288
522	421 421
523	1780 1780
524	745 745
525	6237 6237
526	508 508
527	530 530
528	475 475
529	5972 5972
530	630 630
531	566 566
532	547 547
533	725 725
534	1043 1043
535	1430 1430
536	484 484
537	510 510
538	280 280
539	462 462
540	761 761
541	7863 7863
542	1253 1253
543	1045 1045
544	1545 1545
545	1861 1861
546	348 348
547	5557 5557
548	681 681
549	4059 4059
550	396 396
551	804 804
552	957 957
553	327 327
554	1186 1186
555	817 817
556	312 312
557	1046 1046
558	540 540
559	484 484
560	3989 3989
561	387 387
562	511 511
563	1565 1565
564	5484 5484
565	544 544
566	1727 1727
567	2557 2557
568	1701 1701
569	1737 1737
570	2549 2549
571	938 938
572	324 324
573	413 413
574	322 322
575	8530 8530
576	2638 2638
577	895 895
578	1457 1457
579	868 868
580	779 779
581	425 425
582	935 935
583	1641 1641
584	476 476
585	282 282
586	866 866
587	3508 3508
588	2196 2196
589	955 955
590	406 406
591	352 352
592	481 481
593	333 333
594	540 540
595	1341 1341
596	657 657
597	376 376
598	596 596
599	2511 2511
600	927 927
601	1074 1074
602	1995 1995
603	1789 1789
604	2435 2435
605	354 354
606	2414 2414
607	610 610
608	722 722
609	466 466
610	475 475
611	694 694
612	335 335
613	1390 1390
614	873 873
615	441 441
616	364 364
617	1471 1471
618	807 807
619	2110 2110
620	353 353
621	966 966
622	295 295
623	416 416
624	1654 1654
625	671 671
626	480 480
627	565 565
628	289 289
629	696 696
630	1356 1356
631	286 286
632	551 551
633	407 407
634	665 665
635	821 821
636	1045 1045
637	656 656
638	1518 1518
639	286 286
640	1123 1123
641	310 310
642	1032 1032
643	2343 2343
644	1646 1646
645	281 281
646	1809 1809
647	303 303
648	286 286
649	523 523
650	1172 1172
651	504 504
652	886 886
653	4387 4387
654	879 879
655	1884 1884
656	1560 1560
657	798 798
658	10094 10094
659	556 556
660	2471 2471
661	714 714
662	2749 2749
663	2704 2704
664	1219 1219
665	1483 1483
666	1069 1069
667	397 397
668	509 509
669	399 399
670	440 440
671	481 481
672	2372 2372
673	433 433
674	2975 2975
675	2367 2367
676	517 517
677	3035 3035
678	8626 8626
679	523 523
680	973 973
681	1135 1135
682	704 704
683	360 360
684	1602 1602
685	1186 1186
686	324 324
687	665 665
688	3045 3045
689	1128 1128
690	2014 2014
691	879 879
692	760 760
693	559 559
694	496 496
695	880 880
696	850 850
697	915 915
698	1083 1083
699	6909 6909
700	1330 1330
701	384 384
702	399 399
703	515 515
704	1301 1301
705	728 728
706	5202 5202
707	2206 2206
708	546 546
709	1242 1242
710	1902 1902
711	1520 1520
712	713 713
713	1627 1627
714	801 801
715	1135 1135
716	6597 6597
717	10628 10628
718	1179 1179
719	552 552
720	1697 1697
721	1246 1246
722	676 676
723	335 335
724	1289 1289
725	834 834
726	943 943
727	518 518
728	301 301
729	1600 1600
730	808 808
731	290 290
732	1200 1200
733	2084 2084
734	1980 1980
735	2096 2096
736	380 380
737	1155 1155
738	623 623
739	1634 1634
740	603 603
741	698 698
742	1200 1200
743	703 703
744	499 499
745	1509 1509
746	2029 2029
747	1160 1160
748	356 356
749	436 436
750	1265 1265
751	510 510
752	1082 1082
753	953 953
754	2223 2223
755	846 846
756	436 436
757	708 708
758	1070 1070
759	659 659
760	431 431
761	657 657
762	2282 2282
763	7397 7397
764	1979 1979
765	1941 1941
766	1001 1001
767	989 989
768	502 502
769	931 931
770	1353 1353
771	313 313
772	684 684
773	2525 2525
774	1271 1271
775	1526 1526
776	504 504
777	364 364
778	2330 2330
779	590 590
780	689 689
781	370 370
782	831 831
783	334 334
784	3881 3881
785	1280 1280
786	409 409
787	635 635
788	957 957
789	2219 2219
790	850 850
791	1582 1582
792	366 366
793	523 523
794	774 774
795	767 767
796	2781 2781
797	1384 1384
798	276 276
799	356 356
800	620 620
801	889 889
802	2813 2813
803	4667 4667
804	1025 1025
805	508 508
806	2702 2702
807	593 593
808	409 409
809	981 981
810	979 979
811	761 761
812	1644 1644
813	1536 1536
814	499 499
815	539 539
816	788 788
817	1505 1505
818	351 351
819	932 932
820	2133 2133
821	341 341
822	2801 2801
823	1603 1603
824	405 405
825	1882 1882
826	293 293
827	2021 2021
828	832 832
829	330 330
830	387 387
831	695 695
832	1466 1466
833	762 762
834	351 351
835	807 807
836	1372 1372
837	379 379
838	2780 2780
839	1828 1828
840	385 385
841	2635 2635
842	647 647
843	1393 1393
844	1356 1356
845	352 352
846	2020 2020
847	2613 2613
848	6246 6246
849	380 380
850	3059 3059
851	301 301
852	330 330
853	393 393
854	3612 3612
855	641 641
856	1171 1171
857	4220 4220
858	522 522
859	391 391
860	487 487
861	348 348
862	1993 1993
863	629 629
864	333 333
865	723 723
866	650 650
867	639 639
868	1875 1875
869	421 421
870	402 402
871	2165 2165
872	638 638
873	942 942
874	633 633
875	318 318
876	2693 2693
877	434 434
878	812 812
879	898 898
880	4179 4179
881	7247 7247
882	602 602
883	994 994
884	1518 1518
885	662 662
886	4051 4051
887	909 909
888	976 976
889	300 300
890	899 899
891	1848 1848
892	3834 3834
893	476 476
894	289 289
895	289 289
896	974 974
897	1322 1322
898	1704 1704
899	1056 1056
900	444 444
901	636 636
902	286 286
903	586 586
904	1815 1815
905	718 718
906	628 628
907	482 482
908	3049 3049
909	279 279
910	1264 1264
911	2506 2506
912	2068 2068
913	1070 1070
914	843 843
915	5066 5066
916	1329 1329
917	9917 9917
918	2061 2061
919	1842 1842
920	1957 1957
921	500 500
922	7228 7228
923	1557 1557
924	347 347
925	988 988
926	467 467
927	590 590
928	2917 2917
929	4604 4604
930	372 372
931	1845 1845
932	305 305
933	330 330
934	714 714
935	419 419
936	3293 3293
937	637 637
938	486 486
939	857 857
940	2084 2084
941	907 907
942	10386 10386
943	6965 6965
944	591 591
945	733 733
946	491 491
947	1203 1203
948	1062 1062
949	1091 1091
950	3054 3054
951	1364 1364
952	874 874
953	620 620
954	293 293
955	421 421
956	488 488
957	1435 1435
958	1806 1806
959	4779 4779
960	692 692
961	528 528
962	611 611
963	703 703
964	859 859
965	1707 1707
966	2500 2500
967	336 336
968	995 995
969	723 723
970	3145 3145
971	406 406
972	1173 1173
973	604 604
974	394 394
975	2926 2926
976	1198 1198
977	1284 1284
978	1135 1135
979	603 603
980	3005 3005
981	573 573
982	476 476
983	580 580
984	11157 11157
985	762 762
986	1197 1197
987	282 282
988	2487 2487
989	1938 1938
990	852 852
991	2267 2267
992	451 451
993	834 834
994	619 619
995	887 887
996	520 520
997	9340 9340
998	1093 1093
999	2360 2360
1000	3955 3955
1001	3747 3747
1002	1778 1778
1003	1896 1896
1004	1231 1231
1005	1777 1777
1006	1062 1062
1007	2175 2175
1008	591 591
1009	1025 1025
1010	375 375
1011	1031 1031
1012	4032 4032
1013	352 352
1014	1816 1816
1015	371 371
1016	531 531
1017	1422 1422
1018	1609 1609
1019	698 698
1020	1349 1349
1021	2705 2705
1022	1543 1543
1023	1185 1185
1024	337 337
1025	3402 3402
1026	493 493
1027	9702 9702
1028	1582 1582
1029	4500 4500
1030	1893 1893
1031	698 698
1032	459 459
1033	8482 8482
1034	369 369
1035	702 702
1036	320 320
1037	1005 1005
1038	572 572
1039	2912 2912
1040	349 349
1041	9631 9631
1042	5986 5986
1043	817 817
1044	2343 2343
1045	308 308
1046	517 517
1047	554 554
1048	915 915
1049	2948 2948
1050	1095 1095
1051	2721 2721
1052	750 750
1053	364 364
1054	891 891
1055	654 654
1056	473 473
1057	523 523
1058	2666 2666
1059	759 759
1060	2947 2947
1061	551 551
1062	653 653
1063	274 274
1064	881 881
1065	317 317
1066	297 297
1067	1283 1283
1068	485 485
1069	575 575
1070	573 573
1071	499 499
1072	407 407
1073	654 654
1074	879 879
1075	3073 3073
1076	879 879
1077	514 514
1078	1971 1971
1079	1141 1141
1080	614 614
1081	476 476
1082	603 603
1083	1147 1147
1084	5588 5588
1085	562 562
1086	1069 1069
1087	1864 1864
1088	526 526
1089	2624 2624
1090	1389 1389
1091	841 841
1092	1279 1279
1093	730 730
1094	1162 1162
1095	1201 1201
1096	612 612
1097	1564 1564
1098	1078 1078
1099	485 485
1100	1024 1024
1101	1011 1011
1102	1263 1263
1103	1203 1203
1104	502 502
1105	4714 4714
1106	825 825
1107	816 816
1108	716 716
1109	1794 1794
1110	3899 3899
1111	1575 1575
1112	1027 1027
1113	353 353
1114	2825 2825
1115	860 860
1116	1923 1923
1117	963 963
1118	802 802
1119	1643 1643
1120	2128 2128
1121	685 685
1122	941 941
1123	320 320
1124	337 337
1125	1398 1398
1126	2451 2451
1127	756 756
1128	945 945
1129	8657 8657
1130	1038 1038
1131	3393 3393
1132	596 596
1133	360 360
1134	278 278
1135	3011 3011
1136	2744 2744
1137	543 543
1138	545 545
1139	814 814
1140	1916 1916
1141	385 385
1142	854 854
1143	436 436
1144	2628 2628
1145	525 525
1146	1176 1176
1147	966 966
1148	1665 1665
1149	1464 1464
1150	812 812
1151	588 588
1152	1037 1037
1153	289 289
1154	1528 1528
1155	951 951
1156	7126 7126
1157	327 327
1158	1315 1315
1159	957 957
1160	1667 1667
1161	734 734
1162	1971 1971
1163	607 607
1164	1290 1290
1165	485 485
1166	713 713
1167	881 881
1168	342 342
1169	754 754
1170	2050 2050
1171	2239 2239
1172	362 362
1173	1657 1657
1174	1215 1215
1175	2676 2676
1176	1313 1313
1177	7422 7422
1178	2909 2909
1179	591 591
1180	2509 2509
1181	806 806
1182	1379 1379
1183	562 562
1184	1997 1997
1185	2434 2434
1186	525 525
1187	918 918
1188	293 293
1189	708 708
1190	1940 1940
1191	3049 3049
1192	2319 2319
1193	3468 3468
1194	1979 1979
1195	454 454
1196	506 506
1197	2413 2413
1198	638 638
1199	2378 2378
1200	6417 6417
1201	555 555
1202	1288 1288
1203	890 890
1204	336 336
1205	416 416
1206	2177 2177
1207	1209 1209
1208	364 364
1209	2657 2657
1210	1572 1572
1211	656 656
1212	713 713
1213	2287 2287
1214	987 987
1215	633 633
1216	291 291
1217	1289 1289
1218	863 863
1219	723 723
1220	1302 1302
1221	1910 1910
1222	411 411
1223	1940 1940
1224	1636 1636
1225	2523 2523
1226	363 363
1227	285 285
1228	647 647
1229	1469 1469
1230	1695 1695
1231	524 524
1232	349 349
1233	515 515
1234	426 426
1235	380 380
1236	5499 5499
1237	5815 5815
1238	323 323
1239	331 331
1240	1262 1262
1241	2527 2527
1242	1005 1005
1243	550 550
1244	749 749
1245	965 965
1246	1637 1637
1247	1565 1565
1248	749 749
1249	1714 1714
1250	1756 1756
1251	823 823
1252	9713 9713
1253	3053 3053
1254	675 675
1255	1121 1121
1256	576 576
1257	1096 1096
1258	1166 1166
1259	384 384
1260	1201 1201
1261	517 517
1262	1447 1447
1263	1419 1419
1264	635 635
1265	485 485
1266	1708 1708
1267	4652 4652
1268	809 809
1269	5349 5349
1270	965 965
1271	924 924
1272	951 951
1273	1706 1706
1274	1573 1573
1275	2238 2238
1276	1637 1637
1277	4118 4118
1278	354 354
1279	605 605
1280	703 703
1281	650 650
1282	389 389
1283	972 972
1284	774 774
1285	411 411
1286	1119 1119
1287	1902 1902
1288	306 306
1289	413 413
1290	2052 2052
1291	8692 8692
1292	2008 2008
1293	348 348
1294	822 822
1295	726 726
1296	2078 2078
1297	506 506
1298	898 898
1299	1494 1494
1300	1485 1485
1301	753 753
1302	1501 1501
1303	4184 4184
1304	2510 2510
1305	557 557
1306	500 500
1307	1294 1294
1308	380 380
1309	471 471
1310	1757 1757
1311	2251 2251
1312	618 618
1313	1684 1684
1314	533 533
1315	2049 2049
1316	1283 1283
1317	2658 2658
1318	3648 3648
1319	1087 1087
1320	300 300
1321	1662 1662
1322	1280 1280
1323	309 309
1324	1888 1888
1325	1581 1581
1326	2300 2300
1327	935 935
1328	1708 1708
1329	861 861
1330	350 350
1331	689 689
1332	3622 3622
1333	1861 1861
1334	833 833
1335	427 427
1336	1649 1649
1337	605 605
1338	3088 3088
1339	2809 2809
1340	1649 1649
1341	503 503
1342	344 344
1343	282 282
1344	664 664
1345	9188 9188
1346	1028 1028
1347	567 567
1348	1160 1160
1349	760 760
1350	834 834
1351	438 438
1352	2306 2306
1353	389 389
1354	325 325
1355	4843 4843
1356	365 365
1357	1331 1331
1358	1685 1685
1359	2312 2312
1360	360 360
1361	424 424
1362	1975 1975
1363	8409 8409
1364	1306 1306
1365	448 448
1366	3136 3136
1367	1761 1761
1368	362 362
1369	455 455
1370	479 479
1371	930 930
1372	2059 2059
1373	948 948
1374	2684 2684
1375	286 286
1376	624 624
1377	5201 5201
1378	492 492
1379	1035 1035
1380	1577 1577
1381	371 371
1382	908 908
1383	816 816
1384	1054 1054
1385	2080 2080
1386	2668 2668
1387	2490 2490
1388	512 512
1389	4835 4835
1390	1431 1431
1391	573 573
1392	1531 1531
1393	2731 2731
1394	1007 1007
1395	456 456
1396	433 433
1397	1732 1732
1398	605 605
1399	870 870
1400	648 648
1401	312 312
1402	1839 1839
1403	318 318
1404	1943 1943
1405	571 571
1406	3128 3128
1407	7659 7659
1408	1809 1809
1409	1650 1650
1410	396 396
1411	1084 1084
1412	1102 1102
1413	310 310
1414	1531 1531
1415	7677 7677
1416	3929 3929
1417	2497 2497
1418	1922 1922
1419	1680 1680
1420	604 604
1421	1086 1086
1422	386 386
1423	316 316
1424	1743 1743
1425	2925 2925
1426	2753 2753
1427	781 781
1428	475 475
1429	917 917
1430	1167 1167
1431	1038 1038
1432	4018 4018
1433	7052 7052
1434	367 367
1435	1586 1586
1436	670 670
1437	2753 2753
1438	778 778
1439	579 579
1440	1419 1419
1441	2575 2575
1442	1749 1749
1443	771 771
1444	794 794
1445	432 432
1446	754 754
1447	545 545
1448	2028 2028
1449	1592 1592
1450	1360 1360
1451	1128 1128
1452	1248 1248
1453	1199 1199
1454	1303 1303
1455	7756 7756
1456	2757 2757
1457	878 878
1458	417 417
1459	2473 2473
1460	1345 1345
1461	752 752
1462	359 359
1463	985 985
1464	2228 2228
1465	9671 9671
1466	666 666
1467	2673 2673
1468	468 468
1469	931 931
1470	477 477
1471	988 988
1472	1301 1301
1473	780 780
1474	508 508
1475	934 934
1476	495 495
1477	369 369
1478	1563 1563
1479	4903 4903
1480	12288 12288
1481	8612 8612
1482	1488 1488
1483	1774 1774
1484	535 535
1485	2597 2597
1486	760 760
1487	326 326
1488	3208 3208
1489	976 976
1490	1454 1454
1491	1153 1153
1492	291 291
1493	1803 1803
1494	585 585
1495	988 988
1496	899 899
1497	1692 1692
1498	774 774
1499	1137 1137
1500	739 739
1501	2101 2101
1502	1721 1721
1503	1015 1015
1504	1322 1322
1505	1178 1178
1506	883 883
1507	714 714
1508	709 709
1509	291 291
1510	1236 1236
1511	1230 1230
1512	328 328
1513	1090 1090
1514	2572 2572
1515	2242 2242
1516	1286 1286
1517	1206 1206
1518	963 963
1519	415 415
1520	1975 1975
1521	467 467
1522	400 400
1523	419 419
1524	2347 2347
1525	1288 1288
1526	276 276
1527	538 538
1528	1956 1956
1529	483 483
1530	862 862
1531	1421 1421
1532	3061 3061
1533	4557 4557
1534	1449 1449
1535	528 528
1536	1076 1076
1537	2461 2461
1538	628 628
1539	3746 3746
1540	934 934
1541	644 644
1542	308 308
1543	281 281
1544	1131 1131
1545	1151 1151
1546	280 280
1547	732 732
1548	320 320
1549	4355 4355
1550	2439 2439
1551	524 524
1552	504 504
1553	635 635
1554	991 991
1555	2765 2765
1556	845 845
1557	1289 1289
1558	592 592
1559	2201 2201
1560	2438 2438
1561	1224 1224
1562	2204 2204
1563	724 724
1564	557 557
1565	539 539
1566	809 809
1567	9987 9987
1568	986 986
1569	415 415
1570	556 556
1571	313 313
1572	462 462
1573	3420 3420
1574	977 977
1575	7999 7999
1576	1146 1146
1577	471 471
1578	1281 1281
1579	448 448
1580	984 984
1581	490 490
1582	500 500
1583	3182 3182
1584	949 949
1585	987 987
1586	720 720
1587	365 365
1588	568 568
1589	1351 1351
1590	6385 6385
1591	377 377
1592	761 761
1593	1053 1053
1594	1782 1782
1595	337 337
1596	3239 3239
1597	2606 2606
1598	428 428
1599	567 567
1600	407 407
1601	432 432
1602	2175 2175
1603	925 925
1604	366 366
1605	1103 1103
1606	916 916
1607	457 457
1608	1074 1074
1609	1300 1300
1610	493 493
1611	426 426
1612	682 682
1613	439 439
1614	1917 1917
1615	493 493
1616	640 640
1617	327 327
1618	1971 1971
1619	2645 2645
1620	1335 1335
1621	738 738
1622	3033 3033
1623	493 493
1624	307 307
1625	292 292
1626	339 339
1627	855 855
1628	342 342
1629	579 579
1630	9977 9977
1631	300 300
1632	457 457
1633	2060 2060
1634	581 581
1635	2094 2094
1636	3142 3142
1637	348 348
1638	552 552
1639	947 947
1640	446 446
1641	459 459
1642	3429 3429
1643	339 339
1644	966 966
1645	1877 1877
1646	292 292
1647	904 904
1648	661 661
1649	695 695
1650	357 357
1651	753 753
1652	990 990
1653	2125 2125
1654	318 318
1655	568 568
1656	334 334
1657	1310 1310
1658	740 740
1659	1854 1854
1660	520 520
1661	3315 3315
1662	3929 3929
1663	4603 4603
1664	340 340
1665	1578 1578
1666	685 685
1667	1545 1545
1668	1064 1064
1669	1569 1569
1670	1714 1714
1671	582 582
1672	1024 1024
1673	3560 3560
1674	1442 1442
1675	1848 1848
1676	389 389
1677	918 918
1678	507 507
1679	1003 1003
1680	2000 2000
1681	1213 1213
1682	1339 1339
1683	815 815
1684	2260 2260
1685	667 667
1686	991 991
1687	529 529
1688	5884 5884
1689	1398 1398
1690	2030 2030
1691	733 733
1692	719 719
1693	304 304
1694	1014 1014
1695	6130 6130
1696	6797 6797
1697	693 693
1698	787 787
1699	1799 1799
1700	709 709
1701	660 660
1702	824 824
1703	306 306
1704	918 918
1705	547 547
1706	531 531
1707	2386 2386
1708	417 417
1709	994 994
1710	608 608
1711	409 409
1712	321 321
1713	516 516
1714	5922 5922
1715	914 914
1716	1039 1039
1717	3671 3671
1718	345 345
1719	1317 1317
1720	2950 2950
1721	1491 1491
1722	1283 1283
1723	495 495
1724	1427 1427
1725	1028 1028
1726	1647 1647
1727	725 725
1728	6967 6967
1729	1620 1620
1730	882 882
1731	341 341
1732	1888 1888
1733	1298 1298
1734	2732 2732
1735	1151 1151
1736	446 446
1737	1091 1091
1738	1140 1140
1739	631 631
1740	3065 3065
1741	435 435
1742	362 362
1743	1335 1335
1744	1131 1131
1745	387 387
1746	327 327
1747	729 729
1748	600 600
1749	1370 1370
1750	1184 1184
1751	889 889
1752	1927 1927
1753	489 489
1754	1103 1103
1755	1879 1879
1756	2969 2969
1757	915 915
1758	334 334
1759	1002 1002
1760	1704 1704
1761	897 897
1762	6607 6607
1763	317 317
1764	430 430
1765	1208 1208
1766	2460 2460
1767	473 473
1768	885 885
1769	963 963
1770	2428 2428
1771	657 657
1772	436 436
1773	517 517
1774	935 935
1775	339 339
1776	2451 2451
1777	478 478
1778	4344 4344
1779	3078 3078
1780	1975 1975
1781	727 727
1782	2524 2524
1783	692 692
1784	450 450
1785	682 682
1786	796 796
1787	1074 1074
1788	2815 2815
1789	1016 1016
1790	1152 1152
1791	1475 1475
1792	1100 1100
1793	407 407
1794	852 852
1795	570 570
1796	1107 1107
1797	304 304
1798	3148 3148
1799	753 753
1800	1830 1830
1801	1618 1618
1802	1300 1300
1803	1612 1612
1804	2799 2799
1805	1244 1244
1806	316 316
1807	403 403
1808	624 624
1809	580 580
1810	465 465
1811	1818 1818
1812	5071 5071
1813	3075 3075
1814	914 914
1815	1089 1089
1816	2436 2436
1817	1721 1721
1818	1340 1340
1819	1662 1662
1820	343 343
1821	275 275
1822	818 818
1823	609 609
1824	278 278
1825	311 311
1826	689 689
1827	1100 1100
1828	1089 1089
1829	3278 3278
1830	5848 5848
1831	2099 2099
1832	1180 1180
1833	1245 1245
1834	1169 1169
1835	2868 2868
1836	422 422
1837	681 681
1838	1494 1494
1839	366 366
1840	592 592
1841	294 294
1842	497 497
1843	389 389
1844	531 531
1845	629 629
1846	713 713
1847	1934 1934
1848	2031 2031
1849	535 535
1850	1011 1011
1851	684 684
1852	698 698
1853	705 705
1854	800 800
1855	2222 2222
1856	296 296
1857	600 600
1858	431 431
1859	671 671
1860	780 780
1861	1419 1419
1862	931 931
1863	2303 2303
1864	1699 1699
1865	1139 1139
1866	429 429
1867	990 990
1868	1247 1247
1869	502 502
1870	438 438
1871	10290 10290
1872	1064 1064
1873	577 577
1874	666 666
1875	1836 1836
1876	550 550
1877	775 775
1878	5527 5527
1879	997 997
1880	1582 1582
1881	2992 2992
1882	1634 1634
1883	1539 1539
1884	2996 2996
1885	276 276
1886	1241 1241
1887	893 893
1888	344 344
1889	3118 3118
1890	4747 4747
1891	648 648
1892	488 488
1893	1562 1562
1894	2714 2714
1895	323 323
1896	2001 2001
1897	1123 1123
1898	1957 1957
1899	819 819
1900	789 789
1901	465 465
1902	1551 1551
1903	486 486
1904	6992 6992
1905	1737 1737
1906	872 872
1907	722 722
1908	2922 2922
1909	662 662
1910	1300 1300
1911	2499 2499
1912	5050 5050
1913	2827 2827
1914	710 710
1915	987 987
1916	837 837
1917	2493 2493
1918	1025 1025
1919	367 367
1920	939 939
1921	680 680
1922	796 796
1923	356 356
1924	2132 2132
1925	1356 1356
1926	419 419
1927	560 560
1928	302 302
1929	1379 1379
1930	556 556
1931	385 385
1932	1770 1770
1933	758 758
1934	611 611
1935	3394 3394
1936	1033 1033
1937	1104 1104
1938	2417 2417
1939	817 817
1940	389 389
1941	563 563
1942	399 399
1943	2594 2594
1944	8496 8496
1945	1836 1836
1946	443 443
1947	1195 1195
1948	2430 2430
1949	1985 1985
1950	2034 2034
1951	281 281
1952	1554 1554
1953	998 998
1954	563 563
1955	3964 3964
1956	1736 1736
1957	2047 2047
1958	1458 1458
1959	1735 1735
1960	958 958
1961	1473 1473
1962	701 701
1963	1145 1145
1964	2642 2642
1965	676 676
1966	308 308
1967	360 360
1968	1037 1037
1969	284 284
1970	602 602
1971	367 367
1972	1523 1523
1973	1092 1092
1974	6163 6163
1975	510 510
1976	2588 2588
1977	823 823
1978	4223 4223
1979	369 369
1980	1080 1080
1981	1286 1286
1982	2784 2784
1983	4106 4106
1984	1117 1117
1985	414 414
1986	1680 1680
1987	2447 2447
1988	428 428
1989	777 777
1990	831 831
1991	1149 1149
1992	290 290
1993	1205 1205
1994	564 564
1995	291 291
1996	428 428
1997	9644 9644
1998	824 824
1999	353 353
2000	2454 2454
2001	4026 4026
2002	340 340
2003	298 298
2004	338 338
2005	431 431
2006	746 746
2007	4433 4433
2008	335 335
2009	1981 1981
2010	1938 1938
2011	758 758
2012	761 761
2013	2574 2574
2014	496 496
2015	285 285
2016	909 909
2017	3033 3033
2018	5219 5219
2019	1738 1738
2020	840 840
2021	1216 1216
2022	420 420
2023	1048 1048
2024	446 446
2025	303 303
2026	353 353
2027	384 384
2028	353 353
2029	1857 1857
2030	645 645
2031	4594 4594
2032	1306 1306
2033	289 289
2034	726 726
2035	3004 3004
2036	1747 1747
2037	477 477
2038	352 352
2039	2098 2098
2040	1093 1093
2041	532 532
2042	1885 1885
2043	1664 1664
2044	2920 2920
2045	291 291
2046	5301 5301
2047	1787 1787
2048	1016 1016
2049	864 864
2050	669 669
2051	790 790
2052	542 542
2053	1323 1323
2054	1234 1234
2055	1134 1134
2056	1319 1319
2057	792 792
2058	914 914
2059	298 298
2060	917 917
2061	597 597
2062	557 557
2063	496 496
2064	3326 3326
2065	2899 2899
2066	794 794
2067	443 443
2068	645 645
2069	1158 1158
2070	343 343
2071	11085 11085
2072	725 725
2073	2923 2923
2074	592 592
2075	602 602
2076	562 562
2077	476 476
2078	899 899
2079	908 908
2080	947 947
2081	1411 1411
2082	970 970
2083	2091 2091
2084	731 731
2085	360 360
2086	995 995
2087	1807 1807
2088	655 655
2089	328 328
2090	5166 5166
2091	762 762
2092	1066 1066
2093	1878 1878
2094	1261 1261
2095	1500 1500
2096	1288 1288
2097	282 282
2098	2963 2963
2099	3631 3631
2100	6411 6411
2101	295 295
2102	901 901
2103	5493 5493
2104	1090 1090
2105	606 606
2106	799 799
2107	506 506
2108	435 435
2109	2128 2128
2110	2136 2136
2111	2367 2367
2112	715 715
2113	1638 1638
2114	1637 1637
2115	9920 9920
2116	719 719
2117	951 951
2118	2791 2791
2119	4310 4310
2120	406 406
2121	1072 1072
2122	775 775
2123	460 460
2124	6924 6924
2125	9099 9099
2126	522 522
2127	1472 1472
2128	374 374
2129	2658 2658
2130	1054 1054
2131	366 366
2132	279 279
2133	450 450
2134	616 616
2135	547 547
2136	842 842
2137	393 393
2138	329 329
2139	385 385
2140	2101 2101
2141	560 560
2142	1063 1063
2143	485 485
2144	417 417
2145	1297 1297
2146	2446 2446
2147	341 341
2148	784 784
2149	1032 1032
2150	1250 1250
2151	726 726
2152	2171 2171
2153	2297 2297
2154	1684 1684
2155	1020 1020
2156	2082 2082
2157	994 994
2158	859 859
2159	1518 1518
2160	867 867
2161	1180 1180
2162	403 403
2163	390 390
2164	521 521
2165	968 968
2166	2405 2405
2167	382 382
2168	302 302
2169	374 374
2170	944 944
2171	405 405
2172	780 780
2173	985 985
2174	337 337
2175	611 611
2176	304 304
2177	2333 2333
2178	788 788
2179	10277 10277
2180	868 868
2181	1191 1191
2182	812 812
2183	1181 1181
2184	1892 1892
2185	2287 2287
2186	1103 1103
2187	720 720
2188	1763 1763
2189	1626 1626
2190	1509 1509
2191	1136 1136
2192	589 589
2193	2115 2115
2194	477 477
2195	613 613
2196	1957 1957
2197	826 826
2198	1187 1187
2199	789 789
2200	1964 1964
2201	536 536
2202	863 863
2203	999 999
2204	1140 1140
2205	1932 1932
2206	2827 2827
2207	687 687
2208	6329 6329
2209	1756 1756
2210	339 339
2211	571 571
2212	435 435
2213	1923 1923
2214	879 879
2215	2171 2171
2216	760 760
2217	444 444
2218	1355 1355
2219	2435 2435
2220	2078 2078
2221	600 600
2222	279 279
2223	2007 2007
2224	344 344
2225	508 508
2226	2372 2372
2227	336 336
2228	811 811
2229	1025 1025
2230	1035 1035
2231	862 862
2232	1863 1863
2233	1310 1310
2234	1256 1256
2235	403 403
2236	2456 2456
2237	2893 2893
2238	1010 1010
2239	1151 1151
2240	985 985
2241	701 701
2242	795 795
2243	2043 2043
2244	1954 1954
2245	1071 1071
2246	723 723
2247	323 323
2248	302 302
2249	543 543
2250	1905 1905
2251	8301 8301
2252	291 291
2253	556 556
2254	1065 1065
2255	328 328
2256	724 724
2257	312 312
2258	8328 8328
2259	1350 1350
2260	2640 2640
2261	674 674
2262	1104 1104
2263	308 308
2264	420 420
2265	820 820
2266	9667 9667
2267	734 734
2268	1874 1874
2269	1511 1511
2270	1741 1741
2271	431 431
2272	953 953
2273	1609 1609
2274	2561 2561
2275	1600 1600
2276	907 907
2277	1637 1637
2278	1300 1300
2279	327 327
2280	2493 2493
2281	2771 2771
2282	586 586
2283	1355 1355
2284	2245 2245
2285	291 291
2286	708 708
2287	664 664
2288	789 789
2289	1471 1471
2290	943 943
2291	336 336
2292	968 968
2293	1373 1373
2294	719 719
2295	2145 2145
2296	746 746
2297	373 373
2298	942 942
2299	1651 1651
2300	563 563
2301	274 274
2302	360 360
2303	512 512
2304	1578 1578
2305	375 375
2306	713 713
2307	1067 1067
2308	646 646
2309	4154 4154
2310	1752 1752
2311	708 708
2312	672 672
2313	2661 2661
2314	2732 2732
2315	899 899
2316	11088 11088
2317	495 495
2318	3769 3769
2319	1251 1251
2320	426 426
2321	517 517
2322	2122 2122
2323	1468 1468
2324	398 398
2325	1198 1198
2326	577 577
2327	2677 2677
2328	1218 1218
2329	935 935
2330	603 603
2331	494 494
2332	921 921
2333	606 606
2334	977 977
2335	1683 1683
2336	1104 1104
2337	4198 4198
2338	802 802
2339	635 635
2340	2939 2939
2341	628 628
2342	723 723
2343	1212 1212
2344	2060 2060
2345	1429 1429
2346	284 284
2347	2056 2056
2348	2095 2095
2349	6781 6781
2350	339 339
2351	1123 1123
2352	2568 2568
2353	808 808
2354	3106 3106
2355	873 873
2356	2878 2878
2357	513 513
2358	1130 1130
2359	1272 1272
2360	621 621
2361	477 477
2362	642 642
2363	733 733
2364	320 320
2365	957 957
2366	1280 1280
2367	305 305
2368	1111 1111
2369	1653 1653
2370	1258 1258
2371	2006 2006
2372	295 295
2373	559 559
2374	1818 1818
2375	1614 1614
2376	315 315
2377	892 892
2378	417 417
2379	3920 3920
2380	280 280
2381	333 333
2382	1570 1570
2383	1438 1438
2384	1818 1818
2385	678 678
2386	755 755
2387	1729 1729
2388	1437 1437
2389	302 302
2390	843 843
2391	321 321
2392	2546 2546
2393	856 856
2394	298 298
2395	344 344
2396	2773 2773
2397	2113 2113
2398	4810 4810
2399	1879 1879
2400	1004 1004
2401	1851 1851
2402	1086 1086
2403	3148 3148
2404	7054 7054
2405	1441 1441
2406	480 480
2407	2518 2518
2408	439 439
2409	516 516
2410	780 780
2411	910 910
2412	415 415
2413	824 824
2414	1670 1670
2415	1482 1482
2416	322 322
2417	1826 1826
2418	1515 1515
2419	724 724
2420	448 448
2421	1902 1902
2422	282 282
2423	1112 1112
2424	343 343
2425	300 300
2426	942 942
2427	1281 1281
2428	8998 8998
2429	451 451
2430	500 500
2431	358 358
2432	622 622
2433	1924 1924
2434	824 824
2435	1064 1064
2436	348 348
2437	729 729
2438	504 504
2439	1090 1090
2440	550 550
2441	318 318
2442	553 553
2443	2357 2357
2444	913 913
2445	2171 2171
2446	2703 2703
2447	750 750
2448	502 502
2449	526 526
2450	365 365
2451	975 975
2452	2088 2088
2453	515 515
2454	2652 2652
2455	3096 3096
2456	818 818
2457	8122 8122
2458	294 294
2459	993 993
2460	715 715
2461	429 429
2462	555 555
2463	405 405
2464	500 500
2465	1744 1744
2466	798 798
2467	536 536
2468	713 713
2469	555 555
2470	959 959
2471	548 548
2472	1464 1464
2473	371 371
2474	3087 3087
2475	1415 1415
2476	994 994
2477	1122 1122
2478	436 436
2479	577 577
2480	353 353
2481	321 321
2482	777 777
2483	2435 2435
2484	421 421
2485	518 518
2486	391 391
2487	894 894
2488	320 320
2489	861 861
2490	843 843
2491	855 855
2492	1074 1074
2493	336 336
2494	371 371
2495	651 651
2496	1029 1029
2497	386 386
2498	838 838
2499	1376 1376
2500	401 401
2501	11446 11446
2502	1402 1402
2503	378 378
2504	583 583
2505	1625 1625
2506	2506 2506
2507	756 756
2508	1449 1449
2509	537 537
2510	571 571
2511	560 560
2512	298 298
2513	319 319
2514	856 856
2515	798 798
2516	279 279
2517	1203 1203
2518	1668 1668
2519	1264 1264
2520	292 292
2521	786 786
2522	1906 1906
2523	1215 1215
2524	553 553
2525	1285 1285
2526	2336 2336
2527	7581 7581
2528	1864 1864
2529	1239 1239
2530	291 291
2531	2043 2043
2532	1719 1719
2533	2109 2109
2534	2783 2783
2535	331 331
2536	3071 3071
2537	5326 5326
2538	687 687
2539	3792 3792
2540	2286 2286
2541	1266 1266
2542	608 608
2543	656 656
2544	1185 1185
2545	548 548
2546	492 492
2547	5086 5086
2548	2082 2082
2549	7331 7331
2550	2097 2097
2551	2954 2954
2552	1923 1923
2553	625 625
2554	332 332
2555	1199 1199
2556	428 428
2557	798 798
2558	3815 3815
2559	834 834
2560	803 803
2561	1873 1873
2562	436 436
2563	865 865
2564	571 571
2565	382 382
2566	1389 1389
2567	3581 3581
2568	853 853
2569	2124 2124
2570	316 316
2571	427 427
2572	2340 2340
2573	466 466
2574	1197 1197
2575	853 853
2576	1745 1745
2577	3764 3764
2578	748 748
2579	378 378
2580	1677 1677
2581	398 398
2582	3407 3407
2583	513 513
2584	959 959
2585	631 631
2586	1528 1528
2587	952 952
2588	2193 2193
2589	753 753
2590	296 296
2591	447 447
2592	870 870
2593	1412 1412
2594	528 528
2595	1142 1142
2596	840 840
2597	847 847
2598	1470 1470
2599	1313 1313
2600	647 647
2601	1596 1596
2602	723 723
2603	598 598
2604	777 777
2605	1568 1568
2606	552 552
2607	1118 1118
2608	635 635
2609	1425 1425
2610	1040 1040
2611	465 465
2612	560 560
2613	308 308
2614	1555 1555
2615	701 701
2616	1625 1625
2617	327 327
2618	519 519
2619	377 377
2620	608 608
2621	437 437
2622	659 659
2623	563 563
2624	590 590
2625	391 391
2626	2505 2505
2627	693 693
2628	1561 1561
2629	318 318
2630	400 400
2631	277 277
2632	1101 1101
2633	774 774
2634	891 891
2635	971 971
2636	479 479
2637	516 516
2638	715 715
2639	960 960
2640	305 305
2641	881 881
2642	908 908
2643	292 292
2644	1681 1681
2645	610 610
2646	292 292
2647	1991 1991
2648	378 378
2649	718 718
2650	2397 2397
2651	1572 1572
2652	876 876
2653	484 484
2654	325 325
2655	920 920
2656	730 730
2657	376 376
2658	906 906
2659	1796 1796
2660	336 336
2661	613 613
2662	1128 1128
2663	676 676
2664	828 828
2665	773 773
2666	1524 1524
2667	848 848
2668	961 961
2669	1935 1935
2670	2148 2148
2671	578 578
2672	855 855
2673	360 360
2674	406 406
2675	631 631
2676	1151 1151
2677	1180 1180
2678	777 777
2679	487 487
2680	854 854
2681	716 716
2682	1175 1175
2683	1078 1078
2684	1646 1646
2685	2345 2345
2686	1496 1496
2687	896 896
2688	436 436
2689	398 398
2690	349 349
2691	788 788
2692	756 756
2693	631 631
2694	1281 1281
2695	3073 3073
2696	1482 1482
2697	691 691
2698	1066 1066
2699	367 367
2700	1395 1395
2701	307 307
2702	1331 1331
2703	1428 1428
2704	1508 1508
2705	603 603
2706	775 775
2707	1995 1995
2708	337 337
2709	2599 2599
2710	398 398
2711	1215 1215
2712	515 515
2713	558 558
2714	857 857
2715	2375 2375
2716	1808 1808
2717	606 606
2718	563 563
2719	591 591
2720	692 692
2721	1537 1537
2722	1391 1391
2723	670 670
2724	1239 1239
2725	1299 1299
2726	709 709
2727	419 419
2728	1033 1033
2729	514 514
2730	2086 2086
2731	2208 2208
2732	1227 1227
2733	391 391
2734	1448 1448
2735	3021 3021
2736	2463 2463
2737	318 318
2738	748 748
2739	775 775
2740	934 934
2741	1042 1042
2742	1004 1004
2743	613 613
2744	585 585
2745	3549 3549
2746	483 483
2747	3214 3214
2748	1399 1399
2749	862 862
2750	971 971
2751	989 989
2752	367 367
2753	776 776
2754	1052 1052
2755	2191 2191
2756	328 328
2757	1070 1070
2758	1727 1727
2759	744 744
2760	669 669
2761	331 331
2762	275 275
2763	1595 1595
2764	672 672
2765	1112 1112
2766	2235 2235
2767	1706 1706
2768	618 618
2769	344 344
2770	514 514
2771	1957 1957
2772	689 689
2773	2201 2201
2774	1495 1495
2775	2488 2488
2776	2557 2557
2777	630 630
2778	2271 2271
2779	955 955
2780	1087 1087
2781	4709 4709
2782	2466 2466
2783	1785 1785
2784	3197 3197
2785	1589 1589
2786	1819 1819
2787	393 393
2788	475 475
2789	6867 6867
2790	880 880
2791	669 669
2792	2486 2486
2793	1185 1185
2794	905 905
2795	2873 2873
2796	2437 2437
2797	1978 1978
2798	796 796
2799	1593 1593
2800	688 688
2801	1098 1098
2802	1642 1642
2803	589 589
2804	6279 6279
2805	8468 8468
2806	1171 1171
2807	1798 1798
2808	9039 9039
2809	708 708
2810	381 381
2811	686 686
2812	2592 2592
2813	657 657
2814	8207 8207
2815	1293 1293
2816	908 908
2817	1924 1924
2818	707 707
2819	725 725
2820	829 829
2821	800 800
2822	392 392
2823	1190 1190
2824	532 532
2825	649 649
2826	308 308
2827	428 428
2828	844 844
2829	604 604
2830	851 851
2831	3802 3802
2832	1603 1603
2833	3057 3057
2834	656 656
2835	522 522
2836	516 516
2837	3228 3228
2838	648 648
2839	1874 1874
2840	750 750
2841	304 304
2842	692 692
2843	2277 2277
2844	3317 3317
2845	1423 1423
2846	996 996
2847	707 707
2848	845 845
2849	650 650
2850	886 886
2851	277 277
2852	293 293
2853	1006 1006
2854	1314 1314
2855	304 304
2856	775 775
2857	310 310
2858	1809 1809
2859	1286 1286
2860	388 388
2861	1000 1000
2862	299 299
2863	441 441
2864	303 303
2865	434 434
2866	559 559
2867	308 308
2868	2404 2404
2869	470 470
2870	2130 2130
2871	531 531
2872	1367 1367
2873	340 340
2874	324 324
2875	316 316
2876	2680 2680
2877	469 469
2878	2167 2167
2879	1356 1356
2880	1482 1482
2881	3341 3341
2882	1410 1410
2883	2220 2220
2884	1139 1139
2885	2239 2239
2886	350 350
2887	1286 1286
2888	2113 2113
2889	669 669
2890	1416 1416
2891	434 434
2892	733 733
2893	1163 1163
2894	5289 5289
2895	1029 1029
2896	555 555
2897	1332 1332
2898	522 522
2899	716 716
2900	562 562
2901	924 924
2902	457 457
2903	1731 1731
2904	448 448
2905	578 578
2906	347 347
2907	830 830
2908	292 292
2909	595 595
2910	2258 2258
2911	501 501
2912	295 295
2913	795 795
2914	3063 3063
2915	1008 1008
2916	760 760
2917	968 968
2918	920 920
2919	798 798
2920	2065 2065
2921	3553 3553
2922	2382 2382
2923	417 417
2924	3906 3906
2925	569 569
2926	588 588
2927	546 546
2928	645 645
2929	1248 1248
2930	1368 1368
2931	4065 4065
2932	491 491
2933	499 499
2934	423 423
2935	444 444
2936	3194 3194
2937	1291 1291
2938	1196 1196
2939	2803 2803
2940	1166 1166
2941	596 596
2942	435 435
2943	358 358
2944	369 369
2945	818 818
2946	443 443
2947	389 389
2948	1191 1191
2949	1049 1049
2950	449 449
2951	1894 1894
2952	432 432
2953	1478 1478
2954	4279 4279
2955	777 777
2956	303 303
2957	1666 1666
2958	297 297
2959	1293 1293
2960	438 438
2961	388 388
2962	3767 3767
2963	410 410
2964	701 701
2965	427 427
2966	901 901
2967	536 536
2968	1668 1668
2969	889 889
2970	10264 10264
2971	1064 1064
2972	3122 3122
2973	598 598
2974	370 370
2975	8028 8028
2976	9496 9496
2977	627 627
2978	939 939
2979	896 896
2980	414 414
2981	864 864
2982	359 359
2983	1575 1575
2984	1510 1510
2985	1000 1000
2986	1374 1374
2987	2968 2968
2988	886 886
2989	1704 1704
2990	7106 7106
2991	985 985
2992	2487 2487
2993	560 560
2994	323 323
2995	1907 1907
2996	8413 8413
2997	4791 4791
2998	10211 10211
2999	904 904
3000	345 345
3001	380 380
3002	568 568
3003	378 378
3004	1739 1739
3005	681 681
3006	1931 1931
3007	561 561
3008	1208 1208
3009	2419 2419
3010	1501 1501
3011	698 698
3012	3332 3332
3013	3307 3307
3014	1937 1937
3015	730 730
3016	2914 2914
3017	910 910
3018	704 704
3019	2477 2477
3020	692 692
3021	299 299
3022	1162 1162
3023	449 449
3024	6351 6351
3025	1294 1294
3026	1477 1477
3027	1687 1687
3028	424 424
3029	357 357
3030	1748 1748
3031	532 532
3032	1285 1285
3033	1547 1547
3034	727 727
3035	1486 1486
3036	547 547
3037	7330 7330
3038	2752 2752
3039	1531 1531
3040	2076 2076
3041	1534 1534
3042	3712 3712
3043	2260 2260
3044	1394 1394
3045	1424 1424
3046	1083 1083
3047	547 547
3048	595 595
3049	679 679
3050	2046 2046
3051	628 628
3052	520 520
3053	648 648
3054	1864 1864
3055	4945 4945
3056	1593 1593
3057	3843 3843
3058	797 797
3059	371 371
3060	1728 1728
3061	9341 9341
3062	396 396
3063	366 366
3064	574 574
3065	534 534
3066	642 642
3067	1434 1434
3068	684 684
3069	918 918
3070	868 868
3071	292 292
3072	5300 5300
3073	1631 1631
3074	287 287
3075	751 751
3076	1299 1299
3077	441 441
3078	2449 2449
3079	7363 7363
3080	6380 6380
3081	281 281
3082	573 573
3083	1231 1231
3084	2123 2123
3085	562 562
3086	619 619
3087	1198 1198
3088	498 498
3089	496 496
3090	496 496
3091	1154 1154
3092	806 806
3093	2138 2138
3094	10301 10301
3095	709 709
3096	1417 1417
3097	1050 1050
3098	2581 2581
3099	404 404
3100	650 650
3101	763 763
3102	309 309
3103	514 514
3104	677 677
3105	1262 1262
3106	371 371
3107	2728 2728
3108	328 328
3109	3851 3851
3110	681 681
3111	1017 1017
3112	2376 2376
3113	1557 1557
3114	534 534
3115	279 279
3116	578 578
3117	1875 1875
3118	1637 1637
3119	769 769
3120	1585 1585
3121	1094 1094
3122	2675 2675
3123	476 476
3124	416 416
3125	851 851
3126	6310 6310
3127	609 609
3128	659 659
3129	1646 1646
3130	2268 2268
3131	1004 1004
3132	1283 1283
3133	1192 1192
3134	347 347
3135	452 452
3136	825 825
3137	349 349
3138	293 293
3139	11471 11471
3140	562 562
3141	488 488
3142	1290 1290
3143	2214 2214
3144	2095 2095
3145	1480 1480
3146	416 416
3147	1508 1508
3148	1042 1042
3149	574 574
3150	1279 1279
3151	2905 2905
3152	324 324
3153	958 958
3154	631 631
3155	300 300
3156	769 769
3157	1537 1537
3158	1492 1492
3159	984 984
3160	730 730
3161	4992 4992
3162	599 599
3163	3833 3833
3164	645 645
3165	596 596
3166	852 852
3167	672 672
3168	1042 1042
3169	1630 1630
3170	295 295
3171	486 486
3172	1069 1069
3173	1414 1414
3174	601 601
3175	700 700
3176	455 455
3177	397 397
3178	1072 1072
3179	310 310
3180	1093 1093
3181	2218 2218
3182	655 655
3183	458 458
3184	621 621
3185	3239 3239
3186	943 943
3187	1445 1445
3188	1903 1903
3189	3686 3686
3190	1091 1091
3191	2771 2771
3192	506 506
3193	300 300
3194	912 912
3195	1351 1351
3196	942 942
3197	8129 8129
3198	449 449
3199	296 296
3200	590 590
3201	2505 2505
3202	586 586
3203	2977 2977
3204	277 277
3205	1645 1645
3206	472 472
3207	845 845
3208	5085 5085
3209	3798 3798
3210	463 463
3211	315 315
3212	791 791
3213	6171 6171
3214	333 333
3215	344 344
3216	2153 2153
3217	536 536
3218	1136 1136
3219	506 506
3220	448 448
3221	932 932
3222	1349 1349
3223	1060 1060
3224	781 781
3225	2439 2439
3226	1600 1600
3227	552 552
3228	290 290
3229	1371 1371
3230	358 358
3231	542 542
3232	726 726
3233	4225 4225
3234	1084 1084
3235	396 396
3236	953 953
3237	1368 1368
3238	1360 1360
3239	941 941
3240	292 292
3241	2700 2700
3242	743 743
3243	1317 1317
3244	1549 1549
3245	2076 2076
3246	596 596
3247	1207 1207
3248	7984 7984
3249	814 814
3250	797 797
3251	2047 2047
3252	1056 1056
3253	530 530
3254	627 627
3255	301 301
3256	697 697
3257	983 983
3258	941 941
3259	4571 4571
3260	293 293
3261	1306 1306
3262	473 473
3263	281 281
3264	2657 2657
3265	4674 4674
3266	377 377
3267	1283 1283
3268	1176 1176
3269	466 466
3270	1526 1526
3271	419 419
3272	1520 1520
3273	2361 2361
3274	8299 8299
3275	442 442
3276	1232 1232
3277	384 384
3278	916 916
3279	1086 1086
3280	2194 2194
3281	1645 1645
3282	894 894
3283	487 487
3284	989 989
3285	2698 2698
3286	4474 4474
3287	314 314
3288	1229 1229
3289	326 326
3290	601 601
3291	1626 1626
3292	786 786
3293	305 305
3294	1374 1374
3295	323 323
3296	1596 1596
3297	1371 1371
3298	867 867
3299	1375 1375
3300	308 308
3301	1540 1540
3302	385 385
3303	1919 1919
3304	1824 1824
3305	993 993
3306	645 645
3307	650 650
3308	1719 1719
3309	1856 1856
3310	1059 1059
3311	962 962
3312	290 290
3313	845 845
3314	1152 1152
3315	1775 1775
3316	571 571
3317	548 548
3318	1211 1211
3319	2782 2782
3320	850 850
3321	297 297
3322	746 746
3323	1993 1993
3324	533 533
3325	2160 2160
3326	690 690
3327	1817 1817
3328	333 333
3329	357 357
3330	801 801
3331	1850 1850
3332	1549 1549
3333	1680 1680
3334	1868 1868
3335	689 689
3336	1259 1259
3337	761 761
3338	3322 3322
3339	1588 1588
3340	2222 2222
3341	1649 1649
3342	699 699
3343	479 479
3344	758 758
3345	755 755
3346	603 603
3347	318 318
3348	1416 1416
3349	1210 1210
3350	3210 3210
3351	924 924
3352	1514 1514
3353	851 851
3354	447 447
3355	995 995
3356	303 303
3357	718 718
3358	3029 3029
3359	648 648
3360	557 557
3361	3510 3510
3362	1944 1944
3363	3258 3258
3364	286 286
3365	2272 2272
3366	5996 5996
3367	573 573
3368	286 286
3369	1446 1446
3370	320 320
3371	2498 2498
3372	2641 2641
3373	752 752
3374	502 502
3375	329 329
3376	882 882
3377	614 614
3378	432 432
3379	1428 1428
3380	5004 5004
3381	617 617
3382	1549 1549
3383	5928 5928
3384	724 724
3385	1157 1157
3386	554 554
3387	354 354
3388	1167 1167
3389	597 597
3390	2090 2090
3391	3185 3185
3392	1214 1214
3393	471 471
3394	1684 1684
3395	310 310
3396	933 933
3397	1177 1177
3398	3126 3126
3399	839 839
3400	702 702
3401	1754 1754
3402	555 555
3403	840 840
3404	2051 2051
3405	792 792
3406	2360 2360
3407	1673 1673
3408	369 369
3409	3223 3223
3410	6043 6043
3411	455 455
3412	305 305
3413	858 858
3414	350 350
3415	5398 5398
3416	3032 3032
3417	731 731
3418	3295 3295
3419	1153 1153
3420	793 793
3421	954 954
3422	426 426
3423	1428 1428
3424	1193 1193
3425	640 640
3426	379 379
3427	3017 3017
3428	10427 10427
3429	8955 8955
3430	420 420
3431	601 601
3432	477 477
3433	1772 1772
3434	286 286
3435	1071 1071
3436	2887 2887
3437	1063 1063
3438	1467 1467
3439	663 663
3440	1302 1302
3441	1980 1980
3442	487 487
3443	452 452
3444	300 300
3445	1742 1742
3446	440 440
3447	576 576
3448	579 579
3449	1682 1682
3450	534 534
3451	612 612
3452	400 400
3453	2167 2167
3454	672 672
3455	3554 3554
3456	452 452
3457	1689 1689
3458	1700 1700
3459	420 420
3460	919 919
3461	4890 4890
3462	2966 2966
3463	1833 1833
3464	358 358
3465	695 695
3466	292 292
3467	443 443
3468	1556 1556
3469	328 328
3470	2997 2997
3471	450 450
3472	1189 1189
3473	601 601
3474	325 325
3475	956 956
3476	1994 1994
3477	793 793
3478	464 464
3479	2987 2987
3480	3273 3273
3481	989 989
3482	310 310
3483	334 334
3484	761 761
3485	801 801
3486	1761 1761
3487	2514 2514
3488	300 300
3489	597 597
3490	890 890
3491	1183 1183
3492	886 886
3493	1603 1603
3494	1166 1166
3495	313 313
3496	311 311
3497	560 560
3498	542 542
3499	776 776
3500	2577 2577
3501	394 394
3502	368 368
3503	300 300
3504	558 558
3505	411 411
3506	508 508
3507	608 608
3508	709 709
3509	3780 3780
3510	466 466
3511	1370 1370
3512	473 473
3513	793 793
3514	694 694
3515	626 626
3516	502 502
3517	3853 3853
3518	365 365
3519	708 708
3520	909 909
3521	1647 1647
3522	652 652
3523	3243 3243
3524	533 533
3525	411 411
3526	670 670
3527	933 933
3528	2385 2385
3529	557 557
3530	994 994
3531	1372 1372
3532	3389 3389
3533	788 788
3534	1403 1403
3535	1673 1673
3536	609 609
3537	1648 1648
3538	1007 1007
3539	408 408
3540	1234 1234
3541	658 658
3542	2771 2771
3543	1263 1263
3544	699 699
3545	370 370
3546	1123 1123
3547	2619 2619
3548	365 365
3549	3913 3913
3550	1850 1850
3551	413 413
3552	714 714
3553	8032 8032
3554	345 345
3555	914 914
3556	472 472
3557	622 622
3558	1538 1538
3559	718 718
3560	614 614
3561	654 654
3562	1984 1984
3563	556 556
3564	872 872
3565	3400 3400
3566	1256 1256
3567	832 832
3568	306 306
3569	1789 1789
3570	1450 1450
3571	1471 1471
3572	301 301
3573	321 321
3574	1936 1936
3575	330 330
3576	2073 2073
3577	284 284
3578	1170 1170
3579	692 692
3580	1587 1587
3581	1200 1200
3582	688 688
3583	509 509
3584	323 323
3585	500 500
3586	840 840
3587	779 779
3588	797 797
3589	3695 3695
3590	808 808
3591	353 353
3592	646 646
3593	2255 2255
3594	1650 1650
3595	289 289
3596	4224 4224
3597	5725 5725
3598	1670 1670
3599	1170 1170
3600	318 318
3601	1004 1004
3602	653 653
3603	1313 1313
3604	2216 2216
3605	531 531
3606	1673 1673
3607	1417 1417
3608	724 724
3609	398 398
3610	808 808
3611	715 715
3612	1024 1024
3613	2318 2318
3614	581 581
3615	320 320
3616	2599 2599
3617	895 895
3618	914 914
3619	926 926
3620	544 544
3621	8942 8942
3622	1630 1630
3623	481 481
3624	1683 1683
3625	505 505
3626	564 564
3627	7803 7803
3628	2452 2452
3629	781 781
3630	873 873
3631	539 539
3632	802 802
3633	1757 1757
3634	1080 1080
3635	348 348
3636	1051 1051
3637	7656 7656
3638	1789 1789
3639	281 281
3640	325 325
3641	3587 3587
3642	958 958
3643	763 763
3644	2161 2161
3645	2173 2173
3646	787 787
3647	1294 1294
3648	395 395
3649	2510 2510
3650	1785 1785
3651	287 287
3652	353 353
3653	788 788
3654	1803 1803
3655	471 471
3656	338 338
3657	930 930
3658	5548 5548
3659	1014 1014
3660	1057 1057
3661	1189 1189
3662	429 429
3663	1848 1848
3664	8543 8543
3665	1502 1502
3666	825 825
3667	1922 1922
3668	1872 1872
3669	2659 2659
3670	1250 1250
3671	2079 2079
3672	475 475
3673	739 739
3674	3156 3156
3675	414 414
3676	1530 1530
3677	791 791
3678	438 438
3679	735 735
3680	521 521
3681	581 581
3682	999 999
3683	731 731
3684	2305 2305
3685	940 940
3686	1956 1956
3687	276 276
3688	617 617
3689	1538 1538
3690	3005 3005
3691	1091 1091
3692	612 612
3693	450 450
3694	3512 3512
3695	2610 2610
3696	933 933
3697	2022 2022
3698	747 747
3699	4243 4243
3700	339 339
3701	1407 1407
3702	2087 2087
3703	738 738
3704	1667 1667
3705	333 333
3706	483 483
3707	439 439
3708	693 693
3709	729 729
3710	569 569
3711	277 277
3712	1482 1482
3713	393 393
3714	1545 1545
3715	1664 1664
3716	470 470
3717	870 870
3718	744 744
3719	1443 1443
3720	834 834
3721	1550 1550
3722	2700 2700
3723	532 532
3724	3610 3610
3725	613 613
3726	2170 2170
3727	392 392
3728	2823 2823
3729	685 685
3730	2446 2446
3731	2331 2331
3732	580 580
3733	678 678
3734	667 667
3735	564 564
3736	1351 1351
3737	1950 1950
3738	1441 1441
3739	421 421
3740	556 556
3741	745 745
3742	1888 1888
3743	669 669
3744	2169 2169
3745	905 905
3746	425 425
3747	479 479
3748	890 890
3749	820 820
3750	7916 7916
3751	605 605
3752	471 471
3753	653 653
3754	339 339
3755	6326 6326
3756	1495 1495
3757	1427 1427
3758	1163 1163
3759	2145 2145
3760	438 438
3761	923 923
3762	12045 12045
3763	9146 9146
3764	1859 1859
3765	631 631
3766	828 828
3767	538 538
3768	1142 1142
3769	1223 1223
3770	322 322
3771	350 350
3772	4858 4858
3773	8644 8644
3774	7867 7867
3775	1322 1322
3776	1266 1266
3777	1016 1016
3778	454 454
3779	2725 2725
3780	1505 1505
3781	277 277
3782	1176 1176
3783	398 398
3784	964 964
3785	550 550
3786	868 868
3787	822 822
3788	4754 4754
3789	1309 1309
3790	1002 1002
3791	2425 2425
3792	1455 1455
3793	3390 3390
3794	662 662
3795	1117 1117
3796	1602 1602
3797	2943 2943
3798	563 563
3799	420 420
3800	1481 1481
3801	2185 2185
3802	450 450
3803	332 332
3804	1931 1931
3805	1185 1185
3806	419 419
3807	735 735
3808	2037 2037
3809	613 613
3810	693 693
3811	1417 1417
3812	816 816
3813	464 464
3814	325 325
3815	327 327
3816	783 783
3817	847 847
3818	383 383
3819	1070 1070
3820	1597 1597
3821	654 654
3822	732 732
3823	1348 1348
3824	2638 2638
3825	961 961
3826	1323 1323
3827	2235 2235
3828	513 513
3829	1194 1194
3830	979 979
3831	2684 2684
3832	642 642
3833	1981 1981
3834	1285 1285
3835	334 334
3836	967 967
3837	461 461
3838	1855 1855
3839	10566 10566
3840	334 334
3841	1682 1682
3842	3151 3151
3843	1528 1528
3844	1469 1469
3845	636 636
3846	402 402
3847	1545 1545
3848	6397 6397
3849	453 453
3850	1352 1352
3851	375 375
3852	357 357
3853	1316 1316
3854	2257 2257
3855	679 679
3856	709 709
3857	428 428
3858	1984 1984
3859	2603 2603
3860	997 997
3861	935 935
3862	1102 1102
3863	990 990
3864	2060 2060
3865	1752 1752
3866	2337 2337
3867	1162 1162
3868	852 852
3869	2358 2358
3870	860 860
3871	4671 4671
3872	6061 6061
3873	1268 1268
3874	963 963
3875	663 663
3876	299 299
3877	704 704
3878	464 464
3879	813 813
3880	1900 1900
3881	652 652
3882	2409 2409
3883	1355 1355
3884	4033 4033
3885	412 412
3886	2011 2011
3887	1109 1109
3888	414 414
3889	1388 1388
3890	959 959
3891	1036 1036
3892	2694 2694
3893	897 897
3894	734 734
3895	695 695
3896	554 554
3897	761 761
3898	406 406
3899	368 368
3900	482 482
3901	631 631
3902	3070 3070
3903	901 901
3904	1315 1315
3905	612 612
3906	375 375
3907	623 623
3908	952 952
3909	998 998
3910	1738 1738
3911	1282 1282
3912	439 439
3913	2067 2067
3914	1015 1015
3915	1398 1398
3916	352 352
3917	560 560
3918	3745 3745
3919	2712 2712
3920	1847 1847
3921	1277 1277
3922	1102 1102
3923	1057 1057
3924	375 375
3925	651 651
3926	653 653
3927	500 500
3928	957 957
3929	486 486
3930	291 291
3931	342 342
3932	3703 3703
3933	531 531
3934	3385 3385
3935	1186 1186
3936	1692 1692
3937	412 412
3938	2231 2231
3939	330 330
3940	5698 5698
3941	1424 1424
3942	294 294
3943	738 738
3944	2309 2309
3945	10573 10573
3946	1391 1391
3947	847 847
3948	619 619
3949	3090 3090
3950	3663 3663
3951	2044 2044
3952	1205 1205
3953	1027 1027
3954	843 843
3955	766 766
3956	591 591
3957	570 570
3958	1633 1633
3959	726 726
3960	556 556
3961	339 339
3962	828 828
3963	6302 6302
3964	798 798
3965	695 695
3966	1206 1206
3967	489 489
3968	404 404
3969	1263 1263
3970	881 881
3971	2656 2656
3972	760 760
3973	1583 1583
3974	1372 1372
3975	1412 1412
3976	1589 1589
3977	2062 2062
3978	1724 1724
3979	592 592
3980	2571 2571
3981	1303 1303
3982	1600 1600
